<svg width="24" height="24" viewBox="0 0 24 24" fill="none" xmlns="http://www.w3.org/2000/svg">
<path d="M21.2412 6.43156L12.0061 15.6667L7.38978 11.0491M23 12C23 18.0757 18.0757 23 12 23C5.92433 23 1 18.0757 1 12C1 5.92433 5.92433 1 12 1C13.7759 1 15.4479 1.43144 16.9329 2.17822" stroke="#848E9F" stroke-linecap="round" stroke-linejoin="round"/>
</svg>
