<svg width="20" height="20" viewBox="0 0 20 20" fill="none" xmlns="http://www.w3.org/2000/svg">
<path d="M2.66675 9.55558L8.00008 15.3334L17.3334 4.66669" stroke="#819299" stroke-linecap="round" stroke-linejoin="round"/>
</svg>
