<svg width="30" height="30" viewBox="0 0 30 30" fill="none" xmlns="http://www.w3.org/2000/svg">
<g clip-path="url(#clip0)">
<path d="M1.87505 2.04125C-0.482449 4.49 5.07087e-05 7.09125 5.07087e-05 14.9938C5.07087e-05 21.5563 -1.14495 28.135 4.84755 29.6838C6.7188 30.165 23.2988 30.165 25.1676 29.6813C27.6625 29.0375 29.6925 27.0138 29.97 23.485C30.0088 22.9925 30.0088 7.00375 29.9688 6.50125C29.6738 2.7425 27.36 0.576248 24.3113 0.137497C23.6125 0.036247 23.4726 0.00624701 19.8876 -2.99513e-06C7.1713 0.00624701 4.3838 -0.560004 1.87505 2.04125Z" fill="url(#paint0_linear)"/>
<path d="M14.9975 3.92372C10.4588 3.92372 6.14876 3.51997 4.50251 7.74497C3.82251 9.48997 3.92126 11.7562 3.92126 15.0012C3.92126 17.8487 3.83001 20.525 4.50251 22.2562C6.14501 26.4837 10.49 26.0787 14.995 26.0787C19.3413 26.0787 23.8225 26.5312 25.4888 22.2562C26.17 20.4937 26.07 18.2612 26.07 15.0012C26.07 10.6737 26.3088 7.87996 24.21 5.78246C22.085 3.65746 19.2113 3.92372 14.9925 3.92372H14.9975ZM14.005 5.91997C23.4725 5.90497 24.6775 4.85247 24.0125 19.4737C23.7763 24.645 19.8388 24.0775 14.9988 24.0775C6.17376 24.0775 5.92001 23.825 5.92001 14.9962C5.92001 6.06497 6.62001 5.92497 14.005 5.91747V5.91997ZM20.91 7.75871C20.1763 7.75871 19.5813 8.35371 19.5813 9.08747C19.5813 9.82122 20.1763 10.4162 20.91 10.4162C21.6438 10.4162 22.2388 9.82122 22.2388 9.08747C22.2388 8.35371 21.6438 7.75871 20.91 7.75871ZM14.9975 9.31246C11.8563 9.31246 9.31001 11.86 9.31001 15.0012C9.31001 18.1425 11.8563 20.6887 14.9975 20.6887C18.1388 20.6887 20.6838 18.1425 20.6838 15.0012C20.6838 11.86 18.1388 9.31246 14.9975 9.31246ZM14.9975 11.3087C19.8788 11.3087 19.885 18.6937 14.9975 18.6937C10.1175 18.6937 10.11 11.3087 14.9975 11.3087Z" fill="white"/>
</g>
<defs>
<linearGradient id="paint0_linear" x1="1.93258" y1="28.0839" x2="29.8144" y2="3.9525" gradientUnits="userSpaceOnUse">
<stop stop-color="#FFDD55"/>
<stop offset="0.5" stop-color="#FF543E"/>
<stop offset="1" stop-color="#C837AB"/>
</linearGradient>
<clipPath id="clip0">
<rect width="30" height="30" fill="white"/>
</clipPath>
</defs>
</svg>
