<svg width="20" height="20" viewBox="0 0 22 18" fill="none" xmlns="http://www.w3.org/2000/svg">
<path d="M21 3.552C21 4.398 20.581 5.189 19.88 5.663L14.374 8.718C12.341 10.096 9.674 10.096 7.641 8.718L2.135 5.663C1.434 5.188 1.015 4.397 1.015 3.551C1.015 2.142 2.157 1 3.566 1H18.449C19.858 1 21 2.142 21 3.552ZM21 3.552V14C21 15.657 19.657 17 18 17H4C2.343 17 1 15.657 1 14V3.551" stroke="#026FFF" stroke-width="1.5" stroke-linecap="round" stroke-linejoin="round"/>
</svg>
