<svg width="20" height="20" viewBox="0 0 20 20" fill="none" xmlns="http://www.w3.org/2000/svg">
<path d="M12.4 9.2H15.6M14.8 12H12.4M10 14.8328C9.864 14.4912 9.6536 14.184 9.3832 13.9336C8.9264 13.5104 8.3264 13.2744 7.7032 13.2744H6.6968C6.0736 13.2744 5.4736 13.5096 5.0168 13.9336C4.7464 14.1832 4.536 14.4904 4.4 14.8328M8.4 4.4H3.6328C2.7312 4.4 2 5.1312 2 6.0328V16.4C2 17.284 2.716 18 3.6 18H16.4C17.284 18 18 17.284 18 16.4V6C18 5.116 17.284 4.4 16.4 4.4H11.6M8.33137 8.54304C8.95621 9.16788 8.95621 10.1809 8.33137 10.8058C7.70653 11.4306 6.69346 11.4306 6.06862 10.8058C5.44378 10.1809 5.44378 9.16788 6.06862 8.54304C6.69346 7.9182 7.70653 7.9182 8.33137 8.54304ZM10.8 6H9.2C8.7584 6 8.4 5.6416 8.4 5.2V2.8C8.4 2.3584 8.7584 2 9.2 2H10.8C11.2416 2 11.6 2.3584 11.6 2.8V5.2C11.6 5.6416 11.2416 6 10.8 6Z" stroke="white" stroke-linecap="round" stroke-linejoin="round"/>
</svg>
