<svg width="60" height="60" viewBox="0 0 60 60" fill="none" xmlns="http://www.w3.org/2000/svg">
<path d="M14.4211 29.7929V21.4001C14.4211 18.6545 16.1298 16.195 18.7095 15.2248L37.174 8.28612C40.0676 7.20154 43.1579 9.3267 43.1579 12.4044V19.7743M29.1476 49.7993H45.3684C49.0158 49.7993 52 46.8294 52 43.1994V26.372C52 22.7266 49.0313 19.7721 45.3684 19.7721H18.8421C16.3995 19.7721 14.4211 21.7411 14.4211 24.172V30.5651M27.5604 37.2112L20.8051 43.9342L16.7554 39.8995M43.7083 34.6218C43.4033 34.624 43.1579 34.8704 43.1579 35.174C43.1579 35.4776 43.4055 35.724 43.7105 35.7218C44.0156 35.7218 44.2632 35.4754 44.2632 35.1718C44.2632 34.8682 44.0156 34.6218 43.7083 34.6218ZM22.1579 51.9993C15.4445 51.9993 10 46.5808 10 39.8995C10 33.2182 15.4445 27.7997 22.1579 27.7997C28.8735 27.7997 34.3158 33.2182 34.3158 39.8995C34.3158 46.5808 28.8735 51.9993 22.1579 51.9993Z" stroke="#4090FF" stroke-linecap="round" stroke-linejoin="round"/>
</svg>
