<svg width="450" height="458" viewBox="0 0 450 458" fill="none" xmlns="http://www.w3.org/2000/svg">
<mask id="mask0" style="mask-type:alpha" maskUnits="userSpaceOnUse" x="75" y="149" width="239" height="242">
<path d="M194.601 390.84C260.287 390.84 313.537 336.767 313.537 270.065C313.537 203.362 260.287 149.289 194.601 149.289C128.914 149.289 75.6636 203.362 75.6636 270.065C75.6636 336.767 128.914 390.84 194.601 390.84Z" fill="url(#paint0_linear)"/>
</mask>
<g mask="url(#mask0)">
<path d="M194.601 390.84C260.287 390.84 313.537 336.767 313.537 270.065C313.537 203.362 260.287 149.289 194.601 149.289C128.914 149.289 75.6636 203.362 75.6636 270.065C75.6636 336.767 128.914 390.84 194.601 390.84Z" fill="url(#paint1_linear)"/>
<path d="M19.1352 184.861C17.9813 185.695 16.8941 186.616 15.9065 187.645C13.2727 190.389 11.3769 193.962 11.1632 197.76C11.0558 199.659 11.3721 201.589 12.1526 203.323C12.9332 205.058 14.1839 206.589 15.7692 207.638C17.3187 208.665 19.1391 209.211 20.9672 209.543C22.7953 209.875 24.6534 210.007 26.4921 210.276C36.8504 211.794 46.2453 217.77 53.0954 225.686C59.9454 233.602 64.4131 243.354 67.3304 253.408C69.2804 260.126 70.5745 267.024 72.5816 273.726C74.5886 280.428 77.3743 287.029 81.9059 292.359C87.4211 298.845 95.1156 303.009 102.62 307.033C110.123 311.057 117.812 315.236 123.299 321.747C126.874 325.988 129.344 331.025 132.127 335.823C134.911 340.622 138.157 345.345 142.778 348.415C145.391 350.151 148.471 351.318 151.607 351.207C153.175 351.152 154.738 350.776 156.127 350.047C157.516 349.317 158.725 348.23 159.541 346.89C160.757 344.896 161.048 342.438 160.736 340.124C160.423 337.809 159.549 335.608 158.563 333.491C157.578 331.374 156.471 329.306 155.657 327.117C154.842 324.928 154.321 322.583 154.562 320.26C154.788 318.081 155.678 316.008 156.863 314.165C158.048 312.322 159.525 310.687 161.028 309.093C162.531 307.499 164.07 305.931 165.408 304.196C166.745 302.461 167.885 300.54 168.478 298.43C169.571 294.546 168.731 290.376 167.43 286.556C166.129 282.737 164.367 279.054 163.548 275.103C162.563 270.358 163.007 265.318 164.858 260.84C166.698 256.389 169.919 252.52 173.963 249.904C178.007 247.289 182.858 245.938 187.672 246.086L187.676 246.081C188.924 247.229 190.42 248.099 191.895 248.946C196.711 251.712 201.527 254.479 206.344 257.246C205.776 242.603 218.505 228.791 232.93 228.398C231.325 232.473 229.719 236.55 228.112 240.624C235.778 239.628 243.54 239.391 251.251 239.918C262.657 222.989 274.062 206.058 285.467 189.127C290.845 181.143 297.682 172.312 307.205 172.105C309.784 177.208 312.362 182.31 314.941 187.413C318.527 187.509 322.113 187.606 325.7 187.7C316.042 176.36 308.478 163.185 303.522 149.061C272.622 147.766 241.724 146.47 210.824 145.175C206.311 144.987 201.441 144.929 197.343 146.539C195.313 147.028 193.202 147.183 191.122 147.001C187.25 146.663 183.55 145.161 180.222 143.153C176.894 141.145 173.901 138.636 170.945 136.111C167.989 133.587 165.045 131.026 161.792 128.899C158.539 126.772 154.94 125.078 151.103 124.461C146.881 123.782 142.513 124.436 138.498 125.907C134.483 127.377 130.796 129.637 127.362 132.185C120.494 137.282 114.519 143.585 107.201 148.011C95.2413 155.246 80.7916 156.852 67.7308 161.833C56.738 166.025 46.7928 172.591 35.9122 177.066C32.3943 178.513 28.7845 179.738 25.3295 181.327C23.1696 182.321 21.0581 183.469 19.1352 184.86V184.861ZM301.451 96.1144C300.989 96.4385 300.558 96.8205 300.138 97.1978C294.702 102.078 289.269 106.959 283.835 111.84C279.529 115.705 275.059 119.811 273.121 125.307C272.789 126.246 272.57 127.397 273.21 128.156C273.702 128.74 274.527 128.871 275.278 128.962C282.006 129.779 288.734 130.594 295.461 131.41C297.068 131.605 298.708 131.799 300.291 131.455C301.807 131.125 303.176 130.318 304.517 129.524C317.186 122.021 329.947 114.451 340.914 104.562C329.484 100.549 317.724 97.5005 305.799 95.4625C304.854 95.301 303.879 95.1472 302.949 95.3861C302.405 95.5254 301.913 95.7904 301.451 96.1144ZM324.382 198.515C321.381 203.692 318.384 208.867 315.385 214.043C316.184 219.318 321.228 223.165 326.432 223.908C331.636 224.65 336.884 222.868 341.574 220.458C346.262 218.051 350.687 214.971 355.754 213.563C360.82 212.154 366.928 212.839 370.272 216.955C371.563 218.542 372.394 220.569 374.048 221.758C377.102 223.955 381.399 222.306 384.362 219.984C387.324 217.663 390.008 214.617 393.666 213.822C396.72 215.492 397.891 219.404 397.852 222.926C397.812 226.448 396.862 229.924 396.951 233.446C397.112 239.798 400.945 245.919 406.54 248.759C407.528 239.201 409.888 229.791 413.521 220.916C403.907 219.079 396.93 208.286 399.096 198.6C392.23 197.096 386.143 202.877 379.636 205.563C372.673 208.438 364.818 207.746 357.385 206.587C346.189 204.84 335.135 202.136 324.382 198.515ZM254.053 295.167C253.549 295.527 253.055 295.902 252.572 296.294C249.486 298.796 246.945 301.91 244.162 304.758C241.273 307.712 238.101 310.378 234.718 312.729C234.975 315.693 234.242 318.735 232.66 321.254C231.079 323.774 228.66 325.759 225.879 326.816C223.702 327.644 221.359 327.905 219.084 328.402C216.809 328.9 214.498 329.691 212.849 331.336C211.802 332.381 211.085 333.708 210.495 335.065C209.905 336.422 209.426 337.828 208.77 339.154C206.438 343.868 202.094 347.2 198.6 351.13C196.853 353.095 195.284 355.267 194.353 357.726C193.421 360.184 193.167 362.965 194.031 365.448C194.838 367.765 196.545 369.666 198.436 371.229C200.327 372.792 202.431 374.077 204.36 375.593C208.794 379.078 212.19 383.68 215.535 388.219C218.881 392.758 222.291 397.355 226.741 400.818C231.39 404.435 237.069 406.682 242.919 407.366C248.769 408.05 254.774 407.186 260.25 405.018C271.229 400.672 279.492 391.527 289.327 384.994C300.435 377.616 313.409 373.664 325.443 367.918C329.414 366.024 333.32 363.905 336.652 361.033C339.985 358.16 342.73 354.466 343.869 350.217C344.62 347.419 344.657 344.482 344.571 341.586C344.485 338.69 344.283 335.783 344.575 332.9C345.083 327.883 347.123 323.03 350.354 319.158C349.841 313.393 348.933 307.613 346.348 302.485C343.352 296.539 337.627 291.586 331.055 291.391C327.107 291.276 323.29 292.841 319.346 293.097C311.7 293.591 304.02 288.542 301.333 281.257C300.452 278.866 299.513 275.778 297.013 275.512C296.026 275.407 295.065 275.824 294.156 276.233C284.615 280.512 275.075 284.793 265.535 289.072C261.578 290.847 257.579 292.646 254.053 295.167Z" fill="#A1C3FC"/>
</g>
<path d="M194.601 401.124C123.434 401.124 65.5356 342.33 65.5356 270.063C65.5356 222.771 90.777 178.974 131.41 155.76C131.878 155.492 132.474 155.66 132.738 156.138C133.002 156.614 132.835 157.218 132.366 157.486C92.3459 180.35 67.4847 223.486 67.4847 270.065C67.4847 341.241 124.509 399.144 194.601 399.144C264.692 399.144 321.717 341.241 321.717 270.065C321.717 269.519 322.154 269.076 322.692 269.076C323.23 269.076 323.666 269.52 323.666 270.065C323.667 342.331 265.768 401.124 194.601 401.124Z" fill="#428DFC"/>
<path d="M280.043 368.87H271.653V377.39H280.043V368.87Z" fill="#1D72D8"/>
<path d="M169.789 184.711C171.743 179.222 176.228 175.128 180.545 171.277C185.994 166.412 191.443 161.549 196.894 156.686C197.735 155.934 198.622 155.158 199.71 154.883C200.64 154.647 201.617 154.804 202.561 154.969C214.48 157.043 226.23 160.128 237.647 164.177C226.649 174.031 213.865 181.562 201.174 189.026C199.83 189.816 198.459 190.617 196.941 190.942C195.358 191.281 193.716 191.082 192.111 190.883C185.386 190.045 178.662 189.209 171.937 188.372C171.185 188.278 170.36 188.145 169.87 187.56C169.232 186.8 169.454 185.649 169.789 184.711Z" fill="#A1C3FC"/>
<path d="M277.589 149.678L273.491 158.988L264.324 154.827L268.42 145.517L277.589 149.678Z" fill="#A1C3FC"/>
<path d="M310.546 424.834L120.108 147.592L120.907 147.026L311.345 424.268L310.546 424.834Z" fill="#428DFC"/>
<path d="M87.3617 237.975C87.1499 237.975 86.9536 237.833 86.8926 237.614C86.8191 237.35 86.97 237.079 87.2292 237.004L91.9185 235.653C92.1777 235.577 92.4466 235.73 92.5211 235.992C92.5936 236.256 92.4437 236.529 92.1845 236.605L87.4962 237.956C87.4507 237.971 87.4062 237.975 87.3617 237.975ZM93.9265 236.085C93.7146 236.085 93.5193 235.943 93.4593 235.723C93.3858 235.46 93.5367 235.187 93.7959 235.112L95.6704 234.573C95.9316 234.499 96.2005 234.651 96.273 234.915C96.3456 235.178 96.1956 235.452 95.9364 235.525L94.0609 236.065C94.0164 236.079 93.9719 236.085 93.9265 236.085ZM97.6784 235.004C97.4666 235.004 97.2712 234.862 97.2113 234.643C97.1377 234.38 97.2877 234.106 97.5459 234.031L98.015 233.896C98.2772 233.822 98.5432 233.975 98.6176 234.237C98.6911 234.5 98.5403 234.774 98.282 234.849L97.8139 234.983C97.7684 234.998 97.7229 235.004 97.6784 235.004ZM100.024 234.329C99.8122 234.329 99.6168 234.186 99.5559 233.968C99.4833 233.704 99.6332 233.431 99.8925 233.357L104.582 232.006C104.84 231.93 105.111 232.084 105.183 232.347C105.257 232.611 105.107 232.885 104.848 232.958L100.157 234.308C100.111 234.323 100.068 234.329 100.024 234.329ZM106.589 232.439C106.377 232.439 106.181 232.296 106.121 232.077C106.047 231.814 106.198 231.541 106.457 231.467L108.333 230.926C108.594 230.851 108.861 231.003 108.934 231.267C109.007 231.53 108.857 231.804 108.598 231.878L106.722 232.418C106.677 232.431 106.633 232.439 106.589 232.439ZM110.34 231.357C110.128 231.357 109.933 231.215 109.873 230.995C109.8 230.732 109.95 230.46 110.209 230.385L110.677 230.251C110.934 230.175 111.205 230.328 111.279 230.592C111.351 230.856 111.203 231.129 110.943 231.203L110.474 231.338C110.429 231.351 110.383 231.357 110.34 231.357ZM112.685 230.681C112.473 230.681 112.277 230.539 112.216 230.32C112.143 230.056 112.294 229.785 112.553 229.71L117.242 228.359C117.502 228.282 117.771 228.436 117.845 228.698C117.918 228.962 117.767 229.235 117.508 229.311L112.819 230.662C112.773 230.675 112.729 230.681 112.685 230.681ZM119.25 228.789C119.038 228.789 118.843 228.648 118.783 228.429C118.71 228.165 118.859 227.893 119.118 227.817L120.993 227.277C121.257 227.203 121.522 227.356 121.596 227.617C121.67 227.881 121.519 228.154 121.261 228.229L119.385 228.77C119.339 228.783 119.295 228.789 119.25 228.789ZM123.001 227.709C122.789 227.709 122.593 227.568 122.533 227.348C122.459 227.084 122.61 226.811 122.869 226.737L123.339 226.603C123.597 226.527 123.868 226.681 123.94 226.945C124.014 227.209 123.863 227.481 123.604 227.555L123.135 227.689C123.09 227.702 123.046 227.709 123.001 227.709ZM125.346 227.034C125.134 227.034 124.938 226.891 124.878 226.672C124.804 226.409 124.955 226.135 125.214 226.062L129.903 224.71C130.164 224.634 130.431 224.789 130.506 225.051C130.578 225.315 130.429 225.587 130.169 225.662L125.481 227.013C125.436 227.027 125.39 227.034 125.346 227.034ZM131.912 225.142C131.7 225.142 131.504 225 131.443 224.782C131.37 224.518 131.521 224.246 131.779 224.171L133.654 223.63C133.916 223.555 134.183 223.709 134.257 223.97C134.331 224.234 134.18 224.506 133.921 224.582L132.046 225.123C132 225.138 131.956 225.142 131.912 225.142ZM135.662 224.06C135.451 224.06 135.255 223.919 135.194 223.7C135.12 223.436 135.271 223.165 135.529 223.089L135.998 222.954C136.258 222.877 136.527 223.032 136.601 223.295C136.674 223.557 136.523 223.831 136.265 223.906L135.797 224.042C135.751 224.055 135.707 224.06 135.662 224.06ZM138.007 223.386C137.795 223.386 137.601 223.244 137.54 223.024C137.467 222.761 137.617 222.489 137.876 222.415L142.566 221.065C142.821 220.988 143.094 221.142 143.167 221.405C143.24 221.669 143.09 221.941 142.831 222.016L138.141 223.367C138.096 223.38 138.051 223.386 138.007 223.386ZM144.573 221.495C144.361 221.495 144.165 221.353 144.105 221.134C144.032 220.87 144.182 220.598 144.441 220.523L146.317 219.983C146.579 219.908 146.846 220.062 146.918 220.324C146.992 220.588 146.841 220.861 146.582 220.935L144.707 221.475C144.662 221.49 144.616 221.495 144.573 221.495ZM148.324 220.415C148.112 220.415 147.917 220.274 147.856 220.055C147.783 219.791 147.934 219.518 148.192 219.443L148.66 219.308C148.921 219.232 149.189 219.386 149.263 219.649C149.337 219.911 149.186 220.186 148.927 220.26L148.459 220.395C148.413 220.409 148.367 220.415 148.324 220.415ZM150.669 219.741C150.457 219.741 150.262 219.598 150.201 219.379C150.128 219.116 150.277 218.842 150.538 218.768L155.226 217.417C155.487 217.341 155.755 217.494 155.829 217.757C155.902 218.021 155.751 218.294 155.492 218.369L150.804 219.72C150.757 219.734 150.714 219.741 150.669 219.741ZM157.234 217.847C157.022 217.847 156.828 217.705 156.767 217.487C156.694 217.223 156.843 216.951 157.101 216.876L158.978 216.334C159.24 216.259 159.506 216.414 159.58 216.675C159.654 216.939 159.503 217.211 159.245 217.287L157.369 217.827C157.323 217.842 157.278 217.847 157.234 217.847ZM160.986 216.766C160.774 216.766 160.579 216.624 160.519 216.405C160.445 216.141 160.595 215.87 160.854 215.795L161.323 215.661C161.579 215.584 161.852 215.738 161.925 216.002C161.998 216.265 161.848 216.539 161.589 216.612L161.12 216.747C161.075 216.761 161.029 216.766 160.986 216.766ZM163.331 216.091C163.119 216.091 162.923 215.949 162.863 215.729C162.791 215.466 162.941 215.194 163.199 215.119L167.889 213.768C168.146 213.691 168.417 213.845 168.491 214.109C168.563 214.372 168.413 214.646 168.154 214.721L163.464 216.072C163.419 216.085 163.374 216.091 163.331 216.091ZM169.895 214.2C169.683 214.2 169.488 214.058 169.428 213.839C169.355 213.575 169.504 213.303 169.764 213.228L171.639 212.687C171.896 212.61 172.167 212.765 172.241 213.029C172.314 213.293 172.163 213.566 171.904 213.64L170.03 214.18C169.984 214.193 169.94 214.2 169.895 214.2ZM173.646 213.119C173.434 213.119 173.24 212.977 173.179 212.759C173.106 212.495 173.256 212.222 173.515 212.147L173.983 212.012C174.244 211.936 174.512 212.09 174.585 212.352C174.66 212.615 174.508 212.889 174.25 212.964L173.782 213.098C173.735 213.113 173.692 213.119 173.646 213.119ZM175.991 212.443C175.779 212.443 175.585 212.301 175.524 212.082C175.451 211.818 175.6 211.545 175.86 211.471L180.55 210.12C180.805 210.043 181.079 210.199 181.151 210.463C181.225 210.726 181.074 210.999 180.815 211.073L176.125 212.423C176.081 212.438 176.035 212.443 175.991 212.443ZM182.557 210.553C182.345 210.553 182.15 210.41 182.089 210.192C182.017 209.928 182.166 209.655 182.425 209.582L184.301 209.04C184.558 208.966 184.83 209.118 184.903 209.382C184.976 209.646 184.826 209.918 184.566 209.993L182.691 210.533C182.646 210.547 182.601 210.553 182.557 210.553ZM186.309 209.471C186.097 209.471 185.901 209.329 185.84 209.111C185.766 208.847 185.917 208.576 186.176 208.5L186.644 208.365C186.907 208.288 187.172 208.444 187.247 208.705C187.32 208.969 187.169 209.241 186.911 209.317L186.443 209.452C186.398 209.467 186.353 209.471 186.309 209.471ZM188.653 208.796C188.441 208.796 188.246 208.655 188.186 208.435C188.111 208.171 188.262 207.9 188.522 207.825L193.211 206.474C193.471 206.396 193.74 206.551 193.814 206.814C193.887 207.077 193.737 207.351 193.477 207.427L188.789 208.778C188.742 208.791 188.697 208.796 188.653 208.796ZM195.22 206.906C195.008 206.906 194.812 206.764 194.751 206.546C194.676 206.282 194.828 206.009 195.086 205.934L196.962 205.393C197.224 205.319 197.49 205.472 197.564 205.734C197.639 205.997 197.487 206.271 197.229 206.346L195.354 206.886C195.308 206.899 195.263 206.906 195.22 206.906ZM198.969 205.825C198.757 205.825 198.562 205.683 198.502 205.464C198.428 205.2 198.578 204.926 198.837 204.853L199.306 204.719C199.566 204.645 199.836 204.797 199.908 205.06C199.982 205.324 199.831 205.596 199.571 205.671L199.103 205.804C199.059 205.818 199.014 205.825 198.969 205.825ZM201.314 205.15C201.103 205.15 200.908 205.008 200.847 204.789C200.775 204.525 200.924 204.252 201.184 204.178L205.872 202.826C206.131 202.749 206.401 202.905 206.476 203.168C206.55 203.431 206.398 203.704 206.14 203.778L201.452 205.13C201.403 205.143 201.359 205.15 201.314 205.15ZM207.879 203.258C207.667 203.258 207.471 203.115 207.411 202.896C207.338 202.633 207.488 202.36 207.748 202.287L209.623 201.745C209.879 201.67 210.152 201.823 210.225 202.087C210.298 202.35 210.147 202.623 209.888 202.697L208.014 203.238C207.969 203.252 207.924 203.258 207.879 203.258ZM211.632 202.176C211.419 202.176 211.225 202.035 211.165 201.816C211.091 201.552 211.24 201.279 211.501 201.205L211.97 201.071C212.227 200.996 212.498 201.149 212.571 201.412C212.644 201.676 212.494 201.948 212.235 202.022L211.767 202.157C211.72 202.17 211.675 202.176 211.632 202.176ZM213.976 201.5C213.764 201.5 213.569 201.358 213.509 201.14C213.435 200.876 213.585 200.605 213.844 200.529L218.532 199.178C218.792 199.1 219.063 199.255 219.136 199.518C219.21 199.782 219.06 200.056 218.799 200.13L214.111 201.481C214.065 201.496 214.02 201.5 213.976 201.5ZM220.54 199.611C220.329 199.611 220.133 199.469 220.073 199.25C220 198.987 220.15 198.714 220.409 198.639L222.284 198.098C222.547 198.022 222.813 198.177 222.887 198.439C222.961 198.702 222.81 198.976 222.551 199.05L220.677 199.591C220.63 199.604 220.587 199.611 220.54 199.611ZM224.292 198.53C224.081 198.53 223.885 198.388 223.825 198.169C223.751 197.906 223.902 197.632 224.16 197.558L224.629 197.422C224.888 197.349 225.157 197.5 225.232 197.763C225.306 198.027 225.154 198.3 224.896 198.375L224.428 198.509C224.382 198.523 224.337 198.53 224.292 198.53ZM226.637 197.855C226.425 197.855 226.231 197.712 226.17 197.494C226.097 197.23 226.246 196.957 226.505 196.883L231.196 195.532C231.459 195.457 231.725 195.611 231.798 195.874C231.871 196.137 231.721 196.411 231.462 196.484L226.771 197.834C226.726 197.849 226.682 197.855 226.637 197.855ZM233.203 195.963C232.991 195.963 232.795 195.82 232.735 195.601C232.661 195.338 232.812 195.065 233.071 194.991L234.947 194.45C235.204 194.374 235.476 194.527 235.548 194.792C235.622 195.055 235.471 195.328 235.212 195.402L233.337 195.943C233.292 195.958 233.247 195.963 233.203 195.963ZM236.954 194.882C236.742 194.882 236.547 194.741 236.487 194.521C236.414 194.258 236.563 193.985 236.823 193.911L237.292 193.776C237.548 193.701 237.82 193.853 237.894 194.118C237.966 194.382 237.817 194.654 237.556 194.728L237.088 194.863C237.043 194.876 236.998 194.882 236.954 194.882ZM239.299 194.207C239.087 194.207 238.892 194.065 238.832 193.847C238.759 193.583 238.909 193.311 239.168 193.236L243.856 191.885C244.116 191.81 244.385 191.962 244.459 192.225C244.533 192.489 244.383 192.763 244.123 192.837L239.435 194.188C239.388 194.202 239.343 194.207 239.299 194.207ZM245.864 192.317C245.652 192.317 245.457 192.175 245.396 191.956C245.323 191.693 245.473 191.419 245.732 191.344L247.608 190.804C247.87 190.728 248.136 190.883 248.211 191.144C248.284 191.408 248.133 191.682 247.875 191.756L245.999 192.297C245.952 192.309 245.909 192.317 245.864 192.317ZM249.615 191.235C249.403 191.235 249.208 191.093 249.148 190.873C249.074 190.61 249.224 190.337 249.483 190.263L249.953 190.128C250.21 190.054 250.481 190.205 250.554 190.47C250.628 190.734 250.477 191.006 250.218 191.081L249.749 191.214C249.705 191.229 249.66 191.235 249.615 191.235ZM251.96 190.559C251.748 190.559 251.552 190.416 251.492 190.198C251.42 189.934 251.569 189.66 251.828 189.587L256.518 188.235C256.777 188.161 257.046 188.314 257.12 188.577C257.192 188.841 257.044 189.113 256.784 189.187L252.094 190.538C252.05 190.553 252.004 190.559 251.96 190.559ZM258.526 188.667C258.314 188.667 258.118 188.525 258.058 188.306C257.985 188.042 258.136 187.77 258.395 187.696L260.27 187.156C260.526 187.08 260.799 187.234 260.872 187.497C260.945 187.761 260.795 188.034 260.535 188.108L258.66 188.648C258.614 188.662 258.57 188.667 258.526 188.667ZM262.277 187.588C262.065 187.588 261.871 187.446 261.81 187.227C261.737 186.964 261.887 186.692 262.145 186.616L262.614 186.481C262.874 186.406 263.143 186.559 263.217 186.822C263.291 187.085 263.14 187.358 262.881 187.433L262.413 187.569C262.365 187.582 262.321 187.588 262.277 187.588ZM264.621 186.911C264.409 186.911 264.215 186.77 264.155 186.55C264.081 186.287 264.23 186.014 264.49 185.94L269.179 184.59C269.436 184.514 269.709 184.667 269.781 184.93C269.855 185.194 269.704 185.467 269.445 185.542L264.756 186.892C264.71 186.906 264.665 186.911 264.621 186.911ZM271.187 185.02C270.975 185.02 270.779 184.879 270.718 184.66C270.646 184.396 270.796 184.124 271.054 184.048L272.931 183.508C273.193 183.432 273.459 183.587 273.533 183.848C273.606 184.112 273.456 184.385 273.198 184.46L271.321 185C271.276 185.014 271.231 185.02 271.187 185.02ZM274.94 183.939C274.728 183.939 274.531 183.798 274.471 183.578C274.398 183.314 274.549 183.042 274.808 182.968L275.277 182.833C275.535 182.758 275.805 182.911 275.879 183.175C275.952 183.438 275.801 183.711 275.542 183.786L275.074 183.919C275.029 183.934 274.983 183.939 274.94 183.939ZM277.282 183.265C277.07 183.265 276.875 183.123 276.815 182.905C276.741 182.641 276.891 182.367 277.15 182.293L277.322 182.243C277.585 182.17 277.851 182.321 277.925 182.584C277.999 182.847 277.849 183.12 277.59 183.196L277.418 183.244C277.372 183.258 277.328 183.265 277.282 183.265Z" fill="white"/>
<path d="M143.064 374.153C143.006 374.153 142.947 374.142 142.89 374.119C142.638 374.022 142.513 373.737 142.607 373.482L142.781 373.018C142.876 372.763 143.157 372.635 143.408 372.732C143.66 372.828 143.786 373.114 143.692 373.369L143.518 373.832C143.446 374.03 143.26 374.153 143.064 374.153ZM143.931 371.839C143.874 371.839 143.815 371.829 143.758 371.804C143.506 371.709 143.379 371.421 143.473 371.166L144.167 369.315C144.262 369.059 144.544 368.933 144.795 369.027C145.047 369.124 145.174 369.411 145.079 369.667L144.385 371.518C144.311 371.717 144.126 371.839 143.931 371.839ZM145.315 368.138C145.258 368.138 145.199 368.127 145.142 368.104C144.89 368.007 144.764 367.721 144.859 367.465L146.592 362.839C146.686 362.585 146.969 362.457 147.219 362.553C147.471 362.648 147.597 362.936 147.503 363.191L145.77 367.816C145.698 368.016 145.512 368.138 145.315 368.138ZM147.742 361.66C147.685 361.66 147.626 361.649 147.568 361.626C147.316 361.529 147.19 361.243 147.284 360.988L147.458 360.526C147.553 360.271 147.835 360.143 148.087 360.239C148.338 360.337 148.464 360.622 148.369 360.877L148.196 361.34C148.123 361.538 147.938 361.66 147.742 361.66ZM148.608 359.346C148.551 359.346 148.491 359.336 148.434 359.312C148.183 359.215 148.056 358.93 148.151 358.675L148.844 356.824C148.939 356.568 149.221 356.441 149.472 356.536C149.724 356.633 149.85 356.92 149.756 357.176L149.062 359.025C148.99 359.224 148.805 359.346 148.608 359.346ZM149.994 355.645C149.937 355.645 149.878 355.635 149.821 355.612C149.57 355.516 149.444 355.229 149.538 354.973L151.269 350.347C151.365 350.092 151.647 349.964 151.899 350.06C152.15 350.156 152.276 350.444 152.181 350.699L150.449 355.324C150.375 355.523 150.191 355.645 149.994 355.645ZM152.42 349.169C152.362 349.169 152.303 349.159 152.246 349.136C151.995 349.039 151.868 348.752 151.963 348.497L152.136 348.034C152.232 347.779 152.513 347.649 152.765 347.747C153.016 347.844 153.142 348.13 153.048 348.385L152.874 348.849C152.802 349.047 152.617 349.169 152.42 349.169ZM153.285 346.855C153.228 346.855 153.169 346.844 153.112 346.821C152.86 346.725 152.735 346.439 152.828 346.184L153.522 344.332C153.618 344.076 153.899 343.947 154.151 344.044C154.402 344.142 154.529 344.427 154.434 344.683L153.741 346.534C153.667 346.733 153.481 346.855 153.285 346.855ZM154.671 343.153C154.614 343.153 154.555 343.144 154.498 343.121C154.246 343.024 154.121 342.738 154.215 342.482L155.947 337.857C156.042 337.601 156.324 337.473 156.576 337.57C156.827 337.667 156.953 337.953 156.859 338.208L155.126 342.833C155.053 343.032 154.868 343.153 154.671 343.153ZM157.098 336.677C157.041 336.677 156.982 336.666 156.925 336.643C156.673 336.546 156.548 336.26 156.641 336.005L156.815 335.543C156.91 335.288 157.193 335.159 157.443 335.256C157.695 335.353 157.821 335.639 157.727 335.894L157.553 336.358C157.479 336.555 157.293 336.677 157.098 336.677ZM157.964 334.363C157.906 334.363 157.847 334.353 157.789 334.33C157.538 334.233 157.412 333.946 157.507 333.692L158.201 331.841C158.296 331.586 158.578 331.457 158.828 331.554C159.08 331.652 159.206 331.936 159.112 332.192L158.418 334.043C158.347 334.242 158.16 334.363 157.964 334.363ZM159.351 330.661C159.294 330.661 159.235 330.651 159.177 330.628C158.926 330.53 158.8 330.244 158.894 329.989L160.625 325.364C160.721 325.108 161.003 324.979 161.255 325.077C161.507 325.173 161.632 325.46 161.538 325.715L159.805 330.34C159.732 330.541 159.547 330.661 159.351 330.661ZM161.775 324.185C161.717 324.185 161.658 324.174 161.601 324.151C161.35 324.054 161.224 323.769 161.319 323.513L161.492 323.05C161.588 322.795 161.868 322.667 162.121 322.764C162.372 322.86 162.498 323.146 162.404 323.401L162.23 323.864C162.159 324.063 161.972 324.185 161.775 324.185ZM162.642 321.872C162.585 321.872 162.526 321.861 162.469 321.838C162.218 321.741 162.092 321.454 162.186 321.199L162.88 319.348C162.975 319.093 163.255 318.965 163.508 319.062C163.759 319.158 163.885 319.445 163.79 319.701L163.097 321.551C163.022 321.749 162.838 321.872 162.642 321.872ZM164.028 318.17C163.97 318.17 163.911 318.16 163.854 318.137C163.603 318.04 163.476 317.753 163.571 317.498L165.303 312.873C165.398 312.617 165.679 312.489 165.931 312.585C166.182 312.681 166.309 312.968 166.215 313.224L164.482 317.849C164.41 318.048 164.225 318.17 164.028 318.17ZM166.454 311.693C166.397 311.693 166.338 311.682 166.281 311.659C166.029 311.562 165.904 311.276 165.998 311.02L166.172 310.558C166.266 310.303 166.547 310.174 166.799 310.271C167.051 310.368 167.177 310.654 167.082 310.909L166.909 311.372C166.834 311.571 166.649 311.693 166.454 311.693ZM167.32 309.38C167.263 309.38 167.203 309.37 167.146 309.346C166.894 309.25 166.768 308.963 166.863 308.708L167.557 306.856C167.653 306.601 167.933 306.472 168.184 306.569C168.436 306.667 168.562 306.953 168.468 307.209L167.774 309.06C167.702 309.259 167.516 309.38 167.32 309.38ZM168.707 305.677C168.65 305.677 168.591 305.667 168.534 305.644C168.282 305.548 168.155 305.261 168.249 305.006L169.982 300.379C170.077 300.123 170.359 299.996 170.61 300.091C170.862 300.188 170.989 300.475 170.894 300.731L169.161 305.357C169.088 305.558 168.903 305.677 168.707 305.677ZM171.132 299.202C171.074 299.202 171.015 299.192 170.958 299.169C170.706 299.072 170.58 298.785 170.675 298.529L170.848 298.067C170.944 297.812 171.226 297.683 171.477 297.78C171.728 297.877 171.853 298.163 171.759 298.418L171.585 298.881C171.514 299.082 171.328 299.202 171.132 299.202ZM171.998 296.888C171.941 296.888 171.882 296.877 171.825 296.854C171.574 296.756 171.448 296.472 171.542 296.217L172.235 294.365C172.33 294.11 172.613 293.982 172.864 294.078C173.116 294.175 173.241 294.462 173.146 294.716L172.453 296.567C172.378 296.766 172.195 296.888 171.998 296.888ZM173.384 293.186C173.326 293.186 173.267 293.177 173.21 293.153C172.959 293.058 172.833 292.77 172.928 292.515L174.66 287.889C174.756 287.633 175.037 287.505 175.288 287.601C175.539 287.698 175.665 287.985 175.571 288.241L173.839 292.866C173.766 293.065 173.58 293.186 173.384 293.186ZM175.81 286.71C175.753 286.71 175.694 286.699 175.637 286.676C175.386 286.58 175.26 286.293 175.354 286.037L175.527 285.575C175.622 285.32 175.904 285.191 176.156 285.288C176.407 285.384 176.533 285.671 176.439 285.926L176.265 286.389C176.191 286.588 176.008 286.71 175.81 286.71ZM176.677 284.396C176.62 284.396 176.56 284.386 176.503 284.363C176.251 284.266 176.125 283.98 176.219 283.725L176.913 281.873C177.009 281.618 177.289 281.489 177.541 281.586C177.792 281.684 177.919 281.968 177.825 282.223L177.132 284.076C177.058 284.275 176.872 284.396 176.677 284.396ZM178.062 280.695C178.005 280.695 177.946 280.685 177.889 280.661C177.637 280.565 177.512 280.278 177.606 280.023L179.339 275.397C179.434 275.141 179.714 275.014 179.967 275.109C180.218 275.207 180.344 275.491 180.249 275.747L178.518 280.374C178.444 280.574 178.258 280.695 178.062 280.695ZM180.489 274.218C180.432 274.218 180.372 274.207 180.315 274.184C180.063 274.086 179.937 273.801 180.031 273.545L180.205 273.083C180.3 272.828 180.583 272.699 180.834 272.797C181.086 272.892 181.211 273.179 181.117 273.434L180.943 273.896C180.87 274.097 180.684 274.218 180.489 274.218ZM181.354 271.904C181.297 271.904 181.238 271.894 181.181 271.871C180.93 271.774 180.803 271.487 180.897 271.232L181.592 269.381C181.686 269.126 181.968 268.997 182.219 269.095C182.471 269.191 182.597 269.477 182.503 269.732L181.809 271.584C181.737 271.784 181.551 271.905 181.354 271.905V271.904ZM182.741 268.204C182.684 268.204 182.624 268.194 182.567 268.17C182.315 268.073 182.189 267.786 182.284 267.532L184.015 262.907C184.111 262.651 184.393 262.523 184.644 262.619C184.896 262.717 185.021 263.002 184.928 263.258L183.195 267.883C183.123 268.081 182.936 268.204 182.741 268.204ZM185.166 261.726C185.109 261.726 185.05 261.716 184.993 261.693C184.742 261.595 184.615 261.311 184.709 261.055L184.883 260.592C184.978 260.337 185.261 260.21 185.512 260.305C185.763 260.402 185.889 260.688 185.795 260.943L185.621 261.405C185.548 261.604 185.364 261.726 185.166 261.726ZM186.032 259.413C185.975 259.413 185.915 259.403 185.858 259.379C185.607 259.283 185.481 258.996 185.576 258.741L186.269 256.889C186.365 256.634 186.645 256.507 186.897 256.602C187.148 256.7 187.274 256.986 187.18 257.241L186.488 259.093C186.414 259.293 186.228 259.413 186.032 259.413ZM187.418 255.712C187.361 255.712 187.302 255.701 187.245 255.678C186.994 255.581 186.868 255.295 186.962 255.04L188.694 250.413C188.789 250.157 189.071 250.029 189.323 250.126C189.574 250.222 189.7 250.509 189.605 250.765L187.873 255.391C187.799 255.591 187.615 255.712 187.418 255.712ZM189.844 249.234C189.787 249.234 189.727 249.224 189.67 249.201C189.419 249.104 189.293 248.818 189.388 248.562L189.561 248.1C189.656 247.845 189.937 247.717 190.189 247.813C190.441 247.909 190.568 248.197 190.473 248.451L190.299 248.913C190.226 249.114 190.04 249.234 189.844 249.234ZM190.71 246.922C190.653 246.922 190.594 246.911 190.537 246.888C190.285 246.791 190.159 246.506 190.253 246.25L190.948 244.399C191.043 244.144 191.323 244.016 191.575 244.112C191.827 244.209 191.953 244.496 191.858 244.751L191.165 246.602C191.094 246.799 190.907 246.922 190.71 246.922ZM192.097 243.22C192.04 243.22 191.98 243.209 191.923 243.186C191.671 243.09 191.546 242.804 191.64 242.549L193.372 237.922C193.467 237.667 193.75 237.54 194 237.636C194.252 237.733 194.378 238.019 194.284 238.275L192.55 242.9C192.479 243.097 192.293 243.22 192.097 243.22ZM194.522 236.742C194.465 236.742 194.406 236.734 194.349 236.71C194.097 236.614 193.971 236.327 194.065 236.071L194.239 235.609C194.334 235.353 194.616 235.225 194.867 235.322C195.119 235.418 195.245 235.705 195.151 235.96L194.977 236.423C194.904 236.622 194.718 236.742 194.522 236.742ZM195.388 234.429C195.331 234.429 195.271 234.419 195.214 234.396C194.963 234.299 194.837 234.013 194.932 233.757L195.625 231.906C195.721 231.651 196.002 231.522 196.253 231.619C196.505 231.717 196.63 232.001 196.537 232.256L195.843 234.109C195.769 234.309 195.584 234.429 195.388 234.429ZM196.774 230.728C196.717 230.728 196.658 230.718 196.601 230.695C196.35 230.597 196.223 230.312 196.317 230.057L198.05 225.43C198.145 225.175 198.427 225.047 198.678 225.143C198.93 225.24 199.056 225.526 198.961 225.781L197.229 230.408C197.156 230.607 196.972 230.728 196.774 230.728ZM199.201 224.251C199.144 224.251 199.084 224.241 199.027 224.217C198.776 224.12 198.65 223.834 198.745 223.579L198.918 223.116C199.014 222.861 199.295 222.734 199.547 222.829C199.798 222.927 199.924 223.213 199.829 223.468L199.656 223.93C199.581 224.129 199.396 224.251 199.201 224.251ZM200.066 221.939C200.009 221.939 199.95 221.929 199.893 221.906C199.641 221.808 199.516 221.523 199.609 221.267L200.303 219.417C200.398 219.162 200.68 219.034 200.932 219.13C201.183 219.226 201.309 219.512 201.214 219.767L200.521 221.618C200.449 221.817 200.263 221.939 200.066 221.939ZM201.453 218.237C201.396 218.237 201.337 218.226 201.28 218.203C201.028 218.106 200.902 217.82 200.997 217.565L202.729 212.939C202.825 212.684 203.105 212.554 203.358 212.652C203.609 212.749 203.734 213.034 203.64 213.29L201.909 217.916C201.835 218.115 201.648 218.237 201.453 218.237ZM203.878 211.76C203.821 211.76 203.762 211.75 203.705 211.726C203.453 211.63 203.328 211.343 203.421 211.088L203.596 210.626C203.69 210.37 203.973 210.243 204.223 210.339C204.475 210.435 204.6 210.721 204.507 210.977L204.333 211.439C204.261 211.637 204.075 211.76 203.878 211.76ZM204.746 209.448C204.689 209.448 204.63 209.437 204.571 209.414C204.32 209.317 204.194 209.03 204.288 208.774L204.982 206.923C205.077 206.668 205.36 206.54 205.611 206.637C205.863 206.733 205.988 207.02 205.894 207.275L205.2 209.126C205.126 209.325 204.94 209.448 204.746 209.448ZM206.13 205.746C206.073 205.746 206.014 205.735 205.957 205.712C205.705 205.615 205.579 205.329 205.673 205.074L207.406 200.447C207.501 200.192 207.782 200.062 208.034 200.16C208.286 200.256 208.411 200.543 208.317 200.798L206.585 205.425C206.512 205.623 206.327 205.746 206.13 205.746ZM208.558 199.268C208.5 199.268 208.44 199.259 208.383 199.235C208.132 199.139 208.005 198.851 208.1 198.597L208.273 198.134C208.369 197.878 208.651 197.75 208.903 197.846C209.154 197.943 209.28 198.23 209.185 198.486L209.012 198.947C208.938 199.145 208.752 199.268 208.558 199.268ZM209.422 196.954C209.365 196.954 209.306 196.943 209.249 196.92C208.998 196.824 208.871 196.538 208.965 196.282L209.658 194.431C209.753 194.176 210.034 194.047 210.287 194.144C210.538 194.24 210.664 194.528 210.569 194.783L209.877 196.633C209.805 196.832 209.62 196.954 209.422 196.954ZM210.809 193.252C210.752 193.252 210.692 193.242 210.635 193.219C210.384 193.123 210.258 192.836 210.353 192.581L212.085 187.955C212.181 187.7 212.462 187.571 212.714 187.668C212.965 187.764 213.09 188.051 212.996 188.306L211.265 192.933C211.19 193.133 211.004 193.252 210.809 193.252ZM213.234 186.775C213.177 186.775 213.118 186.766 213.061 186.741C212.81 186.646 212.683 186.358 212.777 186.103L212.951 185.641C213.046 185.385 213.328 185.256 213.579 185.353C213.831 185.45 213.957 185.736 213.863 185.992L213.689 186.455C213.617 186.655 213.431 186.775 213.234 186.775ZM214.101 184.463C214.044 184.463 213.985 184.453 213.927 184.43C213.675 184.333 213.55 184.047 213.644 183.791L214.338 181.94C214.434 181.685 214.714 181.555 214.967 181.653C215.218 181.749 215.344 182.035 215.25 182.29L214.556 184.142C214.482 184.342 214.297 184.463 214.101 184.463ZM215.487 180.762C215.43 180.762 215.371 180.751 215.314 180.728C215.062 180.631 214.937 180.345 215.03 180.09L216.763 175.463C216.857 175.208 217.14 175.08 217.391 175.176C217.643 175.273 217.769 175.559 217.674 175.814L215.941 180.441C215.869 180.639 215.683 180.762 215.487 180.762ZM217.913 174.284C217.856 174.284 217.796 174.274 217.739 174.25C217.487 174.155 217.36 173.867 217.455 173.612L217.628 173.151C217.724 172.895 218.007 172.767 218.258 172.863C218.51 172.959 218.635 173.245 218.541 173.501L218.367 173.964C218.294 174.161 218.109 174.284 217.913 174.284ZM218.777 171.971C218.72 171.971 218.661 171.961 218.604 171.938C218.353 171.841 218.227 171.555 218.321 171.299L219.015 169.449C219.11 169.194 219.392 169.065 219.643 169.162C219.895 169.258 220.021 169.544 219.927 169.799L219.233 171.65C219.161 171.851 218.975 171.971 218.777 171.971ZM220.165 168.27C220.108 168.27 220.048 168.259 219.991 168.236C219.74 168.139 219.614 167.853 219.709 167.598L221.44 162.972C221.536 162.717 221.819 162.587 222.07 162.685C222.321 162.782 222.446 163.068 222.352 163.323L220.62 167.949C220.547 168.149 220.361 168.27 220.165 168.27Z" fill="white"/>
<path d="M113.197 358.171C113.006 358.171 112.825 358.056 112.747 357.867C112.643 357.614 112.761 357.324 113.009 357.22L113.804 356.881C114.054 356.775 114.338 356.894 114.441 357.146C114.545 357.399 114.428 357.689 114.18 357.793L113.384 358.133C113.324 358.159 113.26 358.171 113.197 358.171ZM115.791 357.067C115.6 357.067 115.42 356.953 115.341 356.763C115.237 356.511 115.354 356.221 115.602 356.116L120.099 354.203C120.349 354.097 120.633 354.217 120.736 354.469C120.84 354.721 120.723 355.011 120.474 355.116L115.978 357.027C115.918 357.055 115.853 357.067 115.791 357.067ZM122.086 354.39C121.895 354.39 121.714 354.276 121.636 354.087C121.532 353.834 121.649 353.544 121.897 353.44L122.347 353.248C122.598 353.141 122.882 353.262 122.984 353.513C123.089 353.766 122.971 354.056 122.722 354.16L122.273 354.353C122.212 354.379 122.149 354.39 122.086 354.39ZM124.334 353.433C124.143 353.433 123.962 353.32 123.884 353.13C123.78 352.878 123.898 352.588 124.145 352.482L125.942 351.717C126.192 351.61 126.477 351.73 126.581 351.982C126.684 352.234 126.567 352.525 126.32 352.629L124.522 353.395C124.461 353.421 124.396 353.433 124.334 353.433ZM127.931 351.904C127.74 351.904 127.559 351.79 127.48 351.6C127.376 351.348 127.494 351.057 127.742 350.953L132.238 349.04C132.488 348.935 132.773 349.053 132.876 349.305C132.98 349.557 132.863 349.847 132.614 349.952L128.118 351.864C128.057 351.891 127.993 351.904 127.931 351.904ZM134.224 349.226C134.033 349.226 133.852 349.112 133.774 348.923C133.671 348.67 133.789 348.38 134.037 348.276L134.487 348.083C134.735 347.979 135.022 348.099 135.124 348.35C135.228 348.602 135.11 348.893 134.861 348.997L134.412 349.189C134.351 349.215 134.287 349.226 134.224 349.226ZM136.473 348.269C136.282 348.269 136.101 348.156 136.023 347.966C135.919 347.714 136.037 347.423 136.284 347.318L138.082 346.553C138.332 346.448 138.617 346.565 138.721 346.819C138.824 347.07 138.707 347.361 138.459 347.466L136.661 348.231C136.599 348.257 136.536 348.269 136.473 348.269ZM140.069 346.741C139.878 346.741 139.699 346.626 139.62 346.437C139.515 346.184 139.632 345.894 139.88 345.79L144.376 343.876C144.628 343.771 144.911 343.89 145.014 344.142C145.119 344.394 145.001 344.684 144.752 344.79L140.257 346.7C140.196 346.728 140.133 346.741 140.069 346.741ZM146.363 344.063C146.172 344.063 145.991 343.949 145.913 343.759C145.81 343.507 145.927 343.217 146.176 343.112L146.626 342.92C146.875 342.814 147.16 342.934 147.262 343.187C147.366 343.439 147.25 343.729 147.001 343.834L146.551 344.024C146.491 344.05 146.427 344.063 146.363 344.063ZM148.612 343.107C148.421 343.107 148.24 342.992 148.162 342.803C148.057 342.551 148.175 342.261 148.423 342.156L150.221 341.391C150.472 341.285 150.754 341.405 150.86 341.658C150.963 341.909 150.846 342.199 150.597 342.305L148.8 343.07C148.738 343.095 148.675 343.107 148.612 343.107ZM152.209 341.577C152.018 341.577 151.837 341.463 151.758 341.274C151.655 341.021 151.772 340.731 152.02 340.625L156.516 338.713C156.766 338.606 157.051 338.726 157.154 338.978C157.258 339.23 157.141 339.521 156.892 339.626L152.396 341.537C152.335 341.565 152.272 341.577 152.209 341.577ZM158.503 338.9C158.312 338.9 158.131 338.785 158.053 338.596C157.949 338.345 158.067 338.055 158.315 337.948L158.766 337.757C159.014 337.651 159.299 337.772 159.403 338.024C159.507 338.275 159.39 338.565 159.14 338.671L158.69 338.861C158.629 338.887 158.566 338.9 158.503 338.9ZM160.752 337.942C160.561 337.942 160.379 337.828 160.301 337.639C160.197 337.386 160.315 337.096 160.564 336.991L162.361 336.226C162.613 336.121 162.896 336.24 163 336.492C163.104 336.743 162.986 337.033 162.737 337.14L160.94 337.904C160.877 337.931 160.814 337.942 160.752 337.942ZM164.347 336.413C164.156 336.413 163.976 336.3 163.897 336.11C163.792 335.858 163.91 335.568 164.158 335.461L168.656 333.55C168.905 333.444 169.189 333.564 169.292 333.816C169.397 334.069 169.28 334.359 169.03 334.463L164.535 336.374C164.475 336.401 164.412 336.413 164.347 336.413ZM170.642 333.736C170.451 333.736 170.27 333.621 170.192 333.431C170.089 333.18 170.206 332.89 170.454 332.784L170.904 332.593C171.152 332.488 171.439 332.606 171.541 332.86C171.646 333.111 171.528 333.401 171.279 333.507L170.828 333.697C170.769 333.723 170.705 333.736 170.642 333.736ZM172.889 332.78C172.698 332.78 172.518 332.666 172.44 332.476C172.336 332.224 172.453 331.934 172.701 331.828L174.499 331.063C174.75 330.958 175.034 331.078 175.138 331.329C175.241 331.582 175.124 331.872 174.875 331.977L173.077 332.742C173.016 332.767 172.953 332.78 172.889 332.78ZM176.487 331.25C176.296 331.25 176.115 331.136 176.036 330.946C175.932 330.694 176.05 330.404 176.298 330.299L180.795 328.387C181.047 328.28 181.329 328.4 181.431 328.653C181.537 328.904 181.42 329.196 181.171 329.3L176.675 331.211C176.613 331.238 176.549 331.25 176.487 331.25ZM182.781 328.573C182.59 328.573 182.409 328.459 182.331 328.269C182.228 328.017 182.345 327.728 182.593 327.622L183.043 327.43C183.292 327.325 183.577 327.444 183.68 327.696C183.784 327.948 183.667 328.238 183.417 328.343L182.968 328.535C182.908 328.558 182.845 328.573 182.781 328.573ZM185.029 327.617C184.838 327.617 184.658 327.503 184.58 327.313C184.474 327.061 184.592 326.771 184.841 326.666L186.639 325.9C186.89 325.793 187.172 325.915 187.276 326.166C187.381 326.418 187.263 326.708 187.014 326.813L185.216 327.579C185.154 327.605 185.091 327.617 185.029 327.617ZM188.625 326.086C188.434 326.086 188.253 325.971 188.175 325.781C188.071 325.53 188.188 325.24 188.436 325.134L192.933 323.223C193.183 323.118 193.468 323.237 193.57 323.489C193.675 323.74 193.558 324.03 193.308 324.136L188.813 326.047C188.753 326.074 188.69 326.086 188.625 326.086ZM194.92 323.409C194.729 323.409 194.547 323.294 194.469 323.105C194.365 322.853 194.483 322.564 194.731 322.458L195.181 322.267C195.43 322.161 195.716 322.281 195.818 322.532C195.924 322.784 195.806 323.075 195.557 323.179L195.107 323.371C195.046 323.398 194.984 323.409 194.92 323.409ZM197.168 322.453C196.977 322.453 196.796 322.339 196.718 322.149C196.613 321.897 196.73 321.607 196.98 321.502L198.778 320.736C199.027 320.629 199.313 320.75 199.416 321.002C199.52 321.253 199.403 321.544 199.154 321.649L197.355 322.414C197.295 322.441 197.231 322.453 197.168 322.453ZM200.765 320.924C200.574 320.924 200.393 320.809 200.315 320.619C200.21 320.367 200.328 320.077 200.576 319.972L205.072 318.061C205.323 317.955 205.607 318.075 205.711 318.327C205.815 318.578 205.697 318.868 205.449 318.974L200.953 320.885C200.891 320.909 200.829 320.924 200.765 320.924ZM207.06 318.245C206.868 318.245 206.688 318.13 206.61 317.941C206.506 317.689 206.622 317.399 206.871 317.294L207.321 317.103C207.57 316.996 207.856 317.116 207.958 317.368C208.063 317.62 207.946 317.911 207.697 318.015L207.246 318.207C207.185 318.233 207.122 318.245 207.06 318.245ZM209.307 317.29C209.116 317.29 208.935 317.176 208.857 316.986C208.751 316.734 208.869 316.443 209.118 316.339L210.916 315.573C211.168 315.465 211.451 315.586 211.555 315.839C211.659 316.09 211.541 316.38 211.292 316.486L209.494 317.25C209.432 317.277 209.371 317.29 209.307 317.29ZM212.904 315.76C212.713 315.76 212.531 315.645 212.453 315.456C212.349 315.204 212.466 314.914 212.715 314.809L217.212 312.897C217.463 312.79 217.746 312.911 217.848 313.162C217.953 313.414 217.836 313.705 217.587 313.81L213.091 315.722C213.031 315.748 212.967 315.76 212.904 315.76ZM219.198 313.081C219.007 313.081 218.826 312.967 218.748 312.777C218.643 312.526 218.761 312.236 219.009 312.13L219.458 311.94C219.709 311.832 219.993 311.952 220.096 312.205C220.201 312.456 220.083 312.747 219.834 312.852L219.385 313.043C219.324 313.07 219.263 313.081 219.198 313.081ZM221.446 312.126C221.255 312.126 221.074 312.011 220.996 311.823C220.891 311.57 221.007 311.28 221.257 311.175L223.055 310.41C223.305 310.302 223.59 310.422 223.693 310.675C223.798 310.926 223.68 311.216 223.431 311.322L221.632 312.087C221.572 312.114 221.509 312.126 221.446 312.126ZM225.042 310.596C224.851 310.596 224.671 310.481 224.593 310.292C224.488 310.04 224.605 309.75 224.853 309.645L229.351 307.733C229.601 307.626 229.885 307.746 229.988 307.998C230.093 308.25 229.976 308.54 229.726 308.645L225.23 310.559C225.168 310.584 225.106 310.596 225.042 310.596ZM231.338 307.918C231.147 307.918 230.965 307.804 230.887 307.614C230.783 307.363 230.9 307.073 231.149 306.967L231.599 306.776C231.846 306.667 232.133 306.789 232.235 307.042C232.341 307.293 232.224 307.583 231.975 307.689L231.524 307.88C231.463 307.906 231.4 307.918 231.338 307.918ZM233.586 306.962C233.395 306.962 233.214 306.847 233.136 306.658C233.031 306.406 233.148 306.116 233.397 306.011L235.196 305.245C235.447 305.138 235.73 305.258 235.833 305.51C235.937 305.762 235.821 306.052 235.571 306.158L233.773 306.923C233.712 306.95 233.649 306.962 233.586 306.962ZM237.183 305.433C236.992 305.433 236.81 305.318 236.732 305.128C236.628 304.877 236.746 304.587 236.994 304.481L241.489 302.57C241.739 302.463 242.024 302.583 242.126 302.835C242.232 303.087 242.114 303.377 241.865 303.482L237.37 305.394C237.309 305.419 237.247 305.433 237.183 305.433ZM243.476 302.754C243.285 302.754 243.104 302.64 243.026 302.45C242.922 302.198 243.039 301.908 243.287 301.803L243.738 301.612C243.985 301.504 244.272 301.625 244.375 301.878C244.48 302.129 244.363 302.419 244.113 302.525L243.663 302.716C243.602 302.742 243.54 302.754 243.476 302.754ZM245.725 301.8C245.534 301.8 245.353 301.686 245.275 301.496C245.169 301.244 245.287 300.954 245.536 300.848L247.334 300.084C247.585 299.977 247.869 300.098 247.972 300.349C248.077 300.601 247.959 300.891 247.71 300.996L245.912 301.761C245.851 301.787 245.786 301.8 245.725 301.8ZM249.321 300.269C249.13 300.269 248.949 300.155 248.871 299.965C248.767 299.714 248.884 299.424 249.133 299.318L253.629 297.407C253.879 297.3 254.164 297.419 254.266 297.672C254.371 297.923 254.254 298.214 254.004 298.319L249.508 300.231C249.448 300.256 249.385 300.269 249.321 300.269ZM255.615 297.593C255.424 297.593 255.243 297.478 255.166 297.289C255.06 297.037 255.178 296.747 255.426 296.642L255.876 296.45C256.125 296.343 256.411 296.464 256.513 296.716C256.619 296.968 256.501 297.258 256.252 297.363L255.802 297.554C255.74 297.578 255.679 297.593 255.615 297.593ZM257.863 296.636C257.672 296.636 257.491 296.521 257.413 296.331C257.308 296.08 257.425 295.79 257.675 295.684L259.473 294.92C259.723 294.813 260.008 294.933 260.111 295.185C260.215 295.437 260.098 295.727 259.849 295.832L258.05 296.597C257.989 296.624 257.926 296.636 257.863 296.636ZM261.46 295.105C261.269 295.105 261.088 294.991 261.01 294.801C260.905 294.549 261.023 294.258 261.271 294.154L265.768 292.243C266.018 292.135 266.302 292.255 266.404 292.507C266.51 292.759 266.393 293.049 266.144 293.154L261.647 295.067C261.587 295.092 261.524 295.105 261.46 295.105ZM267.754 292.428C267.563 292.428 267.382 292.314 267.304 292.125C267.199 291.873 267.317 291.584 267.566 291.478L268.015 291.286C268.263 291.179 268.55 291.3 268.652 291.552C268.757 291.804 268.64 292.094 268.391 292.199L267.941 292.39C267.882 292.416 267.819 292.428 267.754 292.428ZM270.002 291.472C269.811 291.472 269.631 291.357 269.553 291.167C269.447 290.916 269.565 290.626 269.814 290.52L271.612 289.756C271.864 289.649 272.146 289.769 272.249 290.02C272.354 290.272 272.236 290.563 271.987 290.667L270.189 291.433C270.128 291.459 270.066 291.472 270.002 291.472ZM273.6 289.942C273.409 289.942 273.228 289.828 273.15 289.638C273.046 289.385 273.162 289.095 273.411 288.991L277.908 287.08C278.156 286.972 278.443 287.092 278.546 287.344C278.651 287.596 278.533 287.886 278.285 287.991L273.788 289.904C273.725 289.929 273.662 289.942 273.6 289.942ZM279.894 287.264C279.703 287.264 279.522 287.15 279.444 286.961C279.338 286.709 279.456 286.418 279.705 286.313L280.156 286.122C280.403 286.015 280.689 286.136 280.792 286.388C280.897 286.639 280.781 286.93 280.531 287.035L280.081 287.226C280.019 287.252 279.958 287.264 279.894 287.264ZM282.143 286.31C281.952 286.31 281.77 286.195 281.692 286.005C281.588 285.753 281.706 285.463 281.954 285.357L283.752 284.593C284 284.486 284.285 284.606 284.388 284.858C284.493 285.11 284.376 285.4 284.128 285.507L282.33 286.271C282.268 286.295 282.204 286.31 282.143 286.31ZM285.738 284.778C285.547 284.778 285.366 284.664 285.288 284.475C285.183 284.222 285.301 283.932 285.549 283.828L290.046 281.915C290.296 281.81 290.58 281.929 290.684 282.18C290.788 282.433 290.671 282.723 290.422 282.828L285.926 284.741C285.865 284.766 285.803 284.778 285.738 284.778ZM292.033 282.101C291.842 282.101 291.66 281.988 291.582 281.798C291.477 281.547 291.594 281.256 291.844 281.151L292.294 280.96C292.54 280.852 292.829 280.972 292.931 281.225C293.037 281.476 292.919 281.766 292.67 281.872L292.219 282.063C292.159 282.09 292.096 282.101 292.033 282.101ZM294.28 281.145C294.089 281.145 293.908 281.03 293.83 280.841C293.726 280.589 293.843 280.299 294.091 280.193L295.89 279.429C296.137 279.323 296.423 279.442 296.527 279.694C296.631 279.946 296.514 280.236 296.265 280.342L294.467 281.107C294.407 281.133 294.344 281.145 294.28 281.145ZM297.878 279.613C297.687 279.613 297.506 279.499 297.428 279.31C297.323 279.057 297.441 278.767 297.689 278.663L302.185 276.749C302.435 276.643 302.719 276.763 302.823 277.015C302.928 277.268 302.81 277.558 302.562 277.662L298.066 279.576C298.003 279.602 297.94 279.613 297.878 279.613ZM304.171 276.937C303.98 276.937 303.8 276.824 303.722 276.634C303.617 276.383 303.734 276.092 303.983 275.987L304.433 275.796C304.681 275.688 304.968 275.808 305.07 276.06C305.175 276.311 305.058 276.602 304.808 276.708L304.358 276.899C304.298 276.925 304.235 276.937 304.171 276.937ZM306.42 275.98C306.229 275.98 306.048 275.866 305.97 275.677C305.865 275.424 305.983 275.134 306.231 275.029L308.029 274.263C308.279 274.158 308.563 274.278 308.666 274.529C308.771 274.782 308.653 275.072 308.405 275.178L306.607 275.943C306.545 275.969 306.483 275.98 306.42 275.98ZM310.016 274.452C309.825 274.452 309.644 274.338 309.566 274.148C309.463 273.896 309.58 273.606 309.828 273.5L314.325 271.587C314.573 271.482 314.859 271.602 314.962 271.853C315.066 272.106 314.95 272.396 314.702 272.501L310.204 274.413C310.142 274.439 310.08 274.452 310.016 274.452Z" fill="white"/>
<path d="M325.115 351.231C325.293 351.247 325.391 351.164 325.405 350.984C325.422 350.805 325.341 350.706 325.162 350.688C324.984 350.673 324.888 350.754 324.872 350.935C324.857 351.115 325.034 351.131 325.115 351.231ZM349.571 340.183C349.652 340.282 349.83 340.298 349.927 340.216C350.024 340.135 350.04 339.955 349.96 339.855C349.879 339.757 349.701 339.74 349.604 339.821C349.329 339.887 349.393 340.167 349.571 340.183ZM336.875 344.936C336.955 345.034 337.035 345.134 337.213 345.149C337.31 345.067 337.409 344.985 337.423 344.805C337.343 344.706 337.261 344.606 337.083 344.592C336.808 344.658 336.794 344.838 336.875 344.936ZM339.487 380.115C339.552 380.395 339.81 380.51 340.086 380.444C340.361 380.378 340.474 380.115 340.409 379.836C340.344 379.556 340.086 379.443 339.81 379.509C339.454 379.476 339.326 379.92 339.487 380.115ZM335.31 368.632C335.375 368.912 335.633 369.026 335.909 368.96C336.184 368.894 336.295 368.631 336.231 368.351C336.166 368.072 335.908 367.959 335.632 368.024C335.357 368.09 335.244 368.352 335.31 368.632ZM331.227 357.066C331.292 357.345 331.551 357.46 331.827 357.394C332.102 357.329 332.214 357.066 332.149 356.786C332.084 356.506 331.826 356.393 331.55 356.459C331.276 356.526 331.163 356.788 331.227 357.066ZM313.728 378.577C314.003 378.511 314.196 378.349 314.309 378.085C314.244 377.805 314.083 377.61 313.824 377.495C313.549 377.561 313.357 377.725 313.34 377.905C313.211 378.348 313.372 378.543 313.728 378.577ZM314.186 366.336C314.462 366.27 314.653 366.105 314.766 365.841C314.702 365.562 314.541 365.366 314.282 365.251C314.006 365.317 313.815 365.483 313.797 365.662C313.765 366.025 314.009 366.319 314.186 366.336ZM356.878 362.872C357.039 363.069 357.395 363.102 357.587 362.937C357.782 362.771 357.815 362.412 357.652 362.216C357.491 362.019 357.135 361.985 356.941 362.15C356.748 362.314 356.715 362.676 356.878 362.872ZM348.727 353.755C348.888 353.952 349.244 353.985 349.436 353.819C349.631 353.654 349.663 353.293 349.5 353.099C349.338 352.902 348.984 352.869 348.79 353.034C348.596 353.197 348.564 353.558 348.727 353.755ZM340.655 344.736C340.816 344.932 341.172 344.966 341.365 344.801C341.559 344.636 341.591 344.275 341.429 344.08C341.267 343.883 340.912 343.85 340.719 344.015C340.428 344.261 340.493 344.539 340.655 344.736ZM301.978 377.683C302.156 377.7 302.528 377.553 302.463 377.273C302.478 377.093 302.334 376.716 302.06 376.781C301.882 376.766 301.509 376.913 301.574 377.192C301.462 377.457 301.623 377.652 301.978 377.683ZM345.487 366.015C345.65 366.211 345.907 366.327 346.101 366.162C346.296 365.996 346.311 365.818 346.246 365.538C346.085 365.34 345.827 365.225 345.632 365.391C345.438 365.556 345.326 365.817 345.487 366.015ZM339 357.323C339.162 357.52 339.42 357.634 339.614 357.47C339.808 357.304 339.824 357.126 339.759 356.846C339.598 356.649 339.339 356.534 339.145 356.698C338.951 356.863 338.838 357.127 339 357.323ZM332.61 348.55C332.773 348.746 333.03 348.862 333.224 348.697C333.419 348.531 333.434 348.353 333.369 348.073C333.208 347.876 332.95 347.761 332.755 347.926C332.464 348.173 332.449 348.353 332.61 348.55ZM322.463 371.006C322.528 371.286 322.787 371.4 323.062 371.334C323.338 371.269 323.449 371.006 323.385 370.726C323.32 370.446 323.061 370.333 322.786 370.399C322.512 370.464 322.301 370.81 322.463 371.006ZM319.725 360.474C319.79 360.754 320.049 360.867 320.226 360.883C320.501 360.817 320.613 360.554 320.549 360.275C320.484 359.995 320.226 359.882 319.95 359.948C319.772 359.931 319.661 360.194 319.725 360.474ZM355.733 346.479C355.992 346.594 356.17 346.61 356.282 346.347C356.395 346.085 356.329 345.807 356.153 345.79C355.894 345.675 355.619 345.742 355.507 346.003C355.508 346.003 355.571 346.284 355.733 346.479ZM346.55 340.908C346.809 341.024 347.084 340.956 347.196 340.694C347.309 340.433 347.245 340.153 346.987 340.038C346.728 339.923 346.453 339.99 346.438 340.17C346.227 340.515 346.291 340.793 346.55 340.908C346.55 340.908 346.47 340.811 346.55 340.908ZM306.317 388.364C306.382 388.643 306.64 388.756 306.916 388.691C307.192 388.625 307.304 388.363 307.239 388.083C307.174 387.804 306.915 387.691 306.64 387.755C306.367 387.82 306.254 388.085 306.317 388.364ZM303.093 376.241C303.157 376.521 303.416 376.634 303.691 376.568C303.967 376.502 304.079 376.24 304.014 375.961C303.95 375.681 303.69 375.567 303.415 375.633C303.238 375.616 303.028 375.961 303.093 376.241ZM348.13 356.43C348.388 356.546 348.664 356.478 348.776 356.216C348.889 355.954 348.823 355.676 348.566 355.56C348.308 355.445 348.032 355.512 347.92 355.773C347.725 355.939 347.871 356.315 348.13 356.43ZM337.314 350.071C337.572 350.186 337.848 350.119 337.96 349.858C338.072 349.595 338.007 349.316 337.75 349.202C337.492 349.087 337.216 349.153 337.104 349.415C337.088 349.595 337.055 349.957 337.314 350.071ZM326.102 372.43C326.263 372.628 326.619 372.661 326.812 372.496C327.006 372.331 327.039 371.97 326.876 371.774C326.715 371.578 326.359 371.545 326.165 371.711C325.971 371.872 325.939 372.233 326.102 372.43ZM318.563 362.459C318.724 362.656 319.08 362.69 319.273 362.525C319.467 362.359 319.5 361.999 319.338 361.803C319.175 361.606 318.82 361.574 318.627 361.738C318.432 361.903 318.32 362.165 318.563 362.459ZM320.839 379.228C321 379.424 321.356 379.457 321.549 379.293C321.743 379.128 321.775 378.767 321.613 378.572C321.451 378.375 321.193 378.26 320.903 378.507C320.708 378.671 320.676 379.032 320.839 379.228ZM313.687 368.929C313.849 369.126 314.205 369.159 314.398 368.994C314.592 368.828 314.704 368.567 314.462 368.272C314.299 368.076 313.943 368.044 313.67 368.11C313.558 368.371 313.525 368.733 313.687 368.929ZM333.699 356.475C333.958 356.591 334.233 356.524 334.427 356.358C334.54 356.095 334.474 355.816 334.313 355.62C334.054 355.504 333.779 355.571 333.585 355.737C333.391 355.901 333.538 356.279 333.699 356.475Z" fill="#1D72D8"/>
<path d="M220.488 210.091C255.487 211.274 275.656 197.832 299.386 200.656C299.386 200.656 302.94 144.32 309.744 119.042C301.131 109.629 283.897 106.329 271.456 103.591C251.563 99.217 232.613 90.6928 216.139 78.714C200.935 101.669 169.617 152.388 169.617 152.388C188.676 164.259 199.482 189.322 220.488 210.091Z" fill="#151A4F"/>
<path d="M113.521 67.1959L245.991 157.179L396.139 158.933L252.87 62.0069L113.521 67.1959Z" fill="#23286B"/>
<path d="M238.59 100.809L258.018 114.007L280.039 114.265L259.026 100.047L238.59 100.809Z" fill="#428DFC"/>
<path d="M411.237 203.768C403.892 200.661 396.855 196.038 391.251 192.111C383.35 186.576 376.935 179.378 371.639 170.104C371.426 169.735 371.556 169.266 371.925 169.054C372.298 168.841 372.766 168.973 372.976 169.343C378.157 178.415 384.423 185.45 392.133 190.851C399.007 195.664 408.049 201.534 417.069 204.255C424.666 206.544 429.644 203.158 431.598 199.563C432.991 197.006 432.864 194.393 431.289 193.063C430.963 192.788 430.924 192.303 431.196 191.979C431.473 191.654 431.955 191.614 432.284 191.891C434.432 193.708 434.702 197.088 432.951 200.303C430.546 204.728 424.564 208.123 416.623 205.729C414.821 205.188 413.02 204.522 411.237 203.768Z" fill="#428DFC"/>
<path d="M403.629 224.591C394.232 220.616 385.959 213.924 380.233 205.497C372.38 193.939 369.246 182.047 370.914 170.156C370.974 169.734 371.365 169.442 371.785 169.501C372.211 169.565 372.499 169.951 372.441 170.37C370.826 181.872 373.875 193.4 381.505 204.633C388.576 215.036 399.647 222.719 411.871 225.712C412.274 225.812 412.54 226.229 412.438 226.642C412.339 227.056 411.92 227.305 411.506 227.206C408.82 226.55 406.181 225.67 403.629 224.591Z" fill="#428DFC"/>
<path d="M146.75 115.722L131.327 113.208L128.773 128.869L144.196 131.384L146.75 115.722Z" fill="#D62929"/>
<path d="M73.83 387.962L65.7059 372.145L81.3326 363.825L89.4569 379.641L73.83 387.962Z" fill="#23286B"/>
<path d="M74.8854 360.717L77.2882 350.523L87.3228 352.912L84.92 363.106L74.8854 360.717Z" fill="#E94A47"/>
<path d="M96.213 288.929L80.6355 286.39L78.0568 302.206L93.6342 304.746L96.213 288.929Z" fill="white"/>
<path d="M32.6229 357.575L26.6465 366.771L17.6115 360.753L23.5869 351.557L32.6229 357.575Z" fill="#1D72D8"/>
<path d="M214.466 267.97L207.871 258.657L217.082 251.921L223.677 261.234L214.466 267.97Z" fill="#D6D7D8"/>
<path d="M214.832 260.28L208.237 250.967L217.448 244.231L224.043 253.544L214.832 260.28Z" fill="#D62929"/>
<path d="M339.714 212.914L324.139 210.375L321.56 226.191L337.135 228.731L339.714 212.914Z" fill="#23286B"/>
<path d="M344.341 366.551C342.08 363.694 340.032 360.765 338.194 357.761C341.219 355.449 344.162 353.362 346.984 351.614C349.158 354.457 351.208 357.385 353.131 360.404C350.409 362.555 347.465 364.597 344.341 366.551Z" fill="#23286B"/>
<path d="M347.918 419.156C341.605 416.973 335.548 414.466 329.745 411.638C332.139 405.082 334.629 398.951 337.263 393.467C343.427 395.713 349.486 398.218 355.435 400.984C353.352 406.995 350.817 413.055 347.918 419.156Z" fill="#23286B"/>
<path d="M380.984 382.878C376.635 382.431 372.401 381.739 368.279 380.806C368.824 376.27 369.493 371.991 370.351 368.102C374.615 368.61 378.852 369.301 383.056 370.173C382.628 374.314 381.919 378.557 380.984 382.878Z" fill="#E94A47"/>
<path d="M336.831 167.06L330.856 176.258L321.819 170.239L327.796 161.042L336.831 167.06Z" fill="#1D72D8"/>
<path d="M118.622 413.867C118.393 413.83 118.209 413.643 118.184 413.397C118.155 413.103 118.365 412.84 118.654 412.81C139.416 410.547 157.813 393.893 162.393 373.209C162.457 372.92 162.743 372.739 163.022 372.804C163.304 372.867 163.482 373.151 163.418 373.439C158.742 394.558 139.96 411.562 118.761 413.871C118.714 413.875 118.666 413.874 118.622 413.866L118.622 413.867Z" fill="#151A4F"/>
<path d="M305.38 256.365C305.193 256.334 305.029 256.202 304.967 256.007C304.876 255.728 305.025 255.425 305.301 255.333C315.793 251.775 321.639 240.276 324.694 231.253C327.845 221.955 328.62 214.657 327.135 208.28C325.568 201.558 320.151 193.971 311.978 193.2C311.688 193.168 311.477 192.913 311.505 192.618C311.533 192.326 311.791 192.11 312.08 192.137C319.535 192.85 326.145 199.377 328.159 208.029C329.691 214.609 328.907 222.097 325.69 231.595C321.196 244.859 314.26 253.417 305.631 256.343C305.545 256.374 305.461 256.378 305.38 256.365Z" fill="#151A4F"/>
<path d="M365.676 196.883C363.139 196.623 360.669 196.219 358.265 195.675C358.582 193.029 358.972 190.532 359.473 188.264C361.962 188.561 364.431 188.964 366.884 189.472C366.635 191.888 366.221 194.362 365.676 196.883Z" fill="#E94A47"/>
<path d="M110.448 32.2012C110.626 32.2167 110.724 32.1354 110.739 31.9545C110.754 31.7737 110.675 31.675 110.496 31.6586C110.318 31.6431 110.22 31.7243 110.206 31.9052C110.19 32.0861 110.366 32.1016 110.448 32.2012ZM134.905 21.1533C134.987 21.2519 135.164 21.2693 135.261 21.1871C135.358 21.1049 135.374 20.925 135.293 20.8254C135.212 20.7267 135.035 20.7093 134.937 20.7915C134.662 20.8573 134.727 21.1368 134.905 21.1533ZM122.207 25.9063C122.289 26.005 122.369 26.1037 122.547 26.1182C122.644 26.0359 122.741 25.9537 122.756 25.7738C122.675 25.6752 122.595 25.5765 122.417 25.562C122.142 25.6278 122.126 25.8077 122.207 25.9063ZM124.821 61.0862C124.886 61.3657 125.144 61.4789 125.42 61.4131C125.694 61.3473 125.807 61.0852 125.743 60.8057C125.678 60.5261 125.42 60.413 125.144 60.4788C124.788 60.4459 124.659 60.8898 124.821 61.0862ZM120.643 49.602C120.708 49.8816 120.966 49.9957 121.242 49.9299C121.518 49.8642 121.629 49.6011 121.564 49.3215C121.499 49.042 121.241 48.9288 120.965 48.9946C120.69 49.0604 120.578 49.3225 120.643 49.602ZM116.561 38.0366C116.625 38.3161 116.884 38.4293 117.159 38.3636C117.435 38.2978 117.547 38.0356 117.482 37.7561C117.418 37.4766 117.159 37.3634 116.884 37.4292C116.609 37.4959 116.497 37.759 116.561 38.0366ZM99.061 59.5483C99.3367 59.4825 99.5292 59.3181 99.6424 59.055C99.5775 58.7754 99.416 58.5791 99.1568 58.4649C98.8811 58.5307 98.6896 58.6942 98.6732 58.875C98.5436 59.3181 98.7051 59.5144 99.061 59.5483ZM99.5195 47.3058C99.7952 47.24 99.9867 47.0756 100.1 46.8125C100.035 46.5329 99.8745 46.3366 99.6153 46.2225C99.3396 46.2882 99.1471 46.4517 99.1307 46.6326C99.0987 46.9943 99.3425 47.2903 99.5195 47.3058ZM142.211 43.8421C142.373 44.0394 142.728 44.0713 142.922 43.9069C143.116 43.7424 143.147 43.3816 142.985 43.1863C142.823 42.9889 142.468 42.9561 142.276 43.1205C142.081 43.283 142.049 43.6457 142.211 43.8421ZM134.059 34.7247C134.221 34.9221 134.577 34.954 134.77 34.7896C134.964 34.6251 134.995 34.2643 134.834 34.069C134.672 33.8716 134.316 33.8397 134.124 34.0041C133.929 34.1666 133.898 34.5274 134.059 34.7247ZM125.988 25.7061C126.15 25.9034 126.506 25.9354 126.698 25.7709C126.893 25.6065 126.924 25.2457 126.762 25.0503C126.601 24.853 126.245 24.8211 126.052 24.9855C125.762 25.2312 125.828 25.5088 125.988 25.7061ZM87.3118 58.6545C87.4898 58.67 87.8603 58.523 87.7964 58.2434C87.8119 58.0626 87.6678 57.6873 87.3921 57.7521C87.2141 57.7366 86.8437 57.8826 86.9075 58.1622C86.7953 58.4262 86.9569 58.6226 87.3118 58.6545ZM130.821 46.9846C130.982 47.182 131.24 47.2961 131.435 47.1317C131.629 46.9672 131.644 46.7883 131.58 46.5078C131.418 46.3105 131.16 46.1963 130.966 46.3608C130.771 46.5252 130.659 46.7873 130.821 46.9846ZM124.333 38.2929C124.495 38.4903 124.754 38.6044 124.949 38.44C125.143 38.2755 125.157 38.0956 125.094 37.8151C124.932 37.6178 124.673 37.5037 124.478 37.6681C124.285 37.8335 124.172 38.0966 124.333 38.2929ZM117.944 29.52C118.105 29.7173 118.364 29.8314 118.559 29.667C118.753 29.5026 118.768 29.3227 118.704 29.0422C118.542 28.8448 118.283 28.7307 118.089 28.8951C117.798 29.1418 117.782 29.3236 117.944 29.52ZM107.797 51.9766C107.861 52.2562 108.12 52.3703 108.396 52.3045C108.671 52.2388 108.783 51.9757 108.718 51.6961C108.654 51.4166 108.395 51.3034 108.119 51.3692C107.845 51.434 107.636 51.7793 107.797 51.9766ZM105.058 41.4442C105.123 41.7238 105.381 41.8379 105.559 41.8534C105.835 41.7876 105.947 41.5255 105.882 41.246C105.817 40.9664 105.559 40.8523 105.283 40.918C105.105 40.9016 104.993 41.1637 105.058 41.4442ZM141.067 27.4491C141.325 27.5642 141.503 27.5797 141.614 27.3185C141.728 27.0564 141.663 26.7759 141.486 26.7604C141.227 26.6453 140.952 26.713 140.839 26.9742C140.84 26.9742 140.905 27.2537 141.067 27.4491ZM131.885 21.8777C132.143 21.9928 132.419 21.9261 132.531 21.6649C132.643 21.4038 132.577 21.1223 132.32 21.0082C132.062 20.8931 131.786 20.9598 131.771 21.1397C131.561 21.485 131.625 21.7636 131.885 21.8777C131.885 21.8777 131.803 21.78 131.885 21.8777ZM91.6509 69.3339C91.7157 69.6135 91.974 69.7276 92.2497 69.6618C92.5253 69.596 92.6365 69.333 92.5717 69.0534C92.5069 68.7739 92.2487 68.6607 91.973 68.7265C91.6993 68.7913 91.5871 69.0554 91.6509 69.3339ZM88.4261 57.2114C88.4899 57.4909 88.7492 57.6041 89.0248 57.5383C89.3005 57.4725 89.4117 57.2104 89.3469 56.9309C89.2821 56.6513 89.0229 56.5372 88.7482 56.603C88.5712 56.5865 88.3613 56.9309 88.4261 57.2114ZM133.463 37.4002C133.721 37.5153 133.997 37.4485 134.109 37.1874C134.223 36.9252 134.157 36.6447 133.899 36.5306C133.641 36.4155 133.366 36.4832 133.253 36.7444C133.059 36.9088 133.205 37.2851 133.463 37.4002ZM122.647 31.0415C122.906 31.1566 123.181 31.0889 123.294 30.8277C123.406 30.5665 123.341 30.286 123.084 30.1719C122.825 30.0568 122.55 30.1245 122.438 30.3857C122.421 30.5675 122.388 30.9273 122.647 31.0415ZM111.435 53.4014C111.597 53.5987 111.953 53.6306 112.145 53.4662C112.339 53.3018 112.371 52.941 112.21 52.7456C112.048 52.5483 111.691 52.5154 111.499 52.6798C111.304 52.8414 111.274 53.2041 111.435 53.4014ZM103.896 43.43C104.058 43.6273 104.414 43.6592 104.606 43.4948C104.801 43.3304 104.833 42.9686 104.671 42.7732C104.51 42.5759 104.153 42.544 103.96 42.7084C103.766 42.8719 103.654 43.136 103.896 43.43ZM106.172 60.1982C106.334 60.3956 106.69 60.4275 106.882 60.263C107.077 60.0986 107.108 59.7378 106.946 59.5425C106.785 59.3451 106.526 59.23 106.236 59.4767C106.042 59.6401 106.011 60.0019 106.172 60.1982ZM99.0214 49.899C99.1829 50.0963 99.5388 50.1282 99.7313 49.9638C99.9258 49.7993 100.038 49.5372 99.7952 49.2432C99.6336 49.0459 99.2777 49.0139 99.004 49.0797C98.8918 49.3409 98.8598 49.7026 99.0214 49.899ZM119.033 37.4447C119.291 37.5598 119.567 37.493 119.76 37.3286C119.873 37.0665 119.808 36.7869 119.646 36.5906C119.388 36.4755 119.112 36.5422 118.919 36.7067C118.725 36.8701 118.871 37.2483 119.033 37.4447Z" fill="#1D72D8"/>
<path d="M260.06 107.581C274.834 108.756 289.478 111.581 303.628 115.991C317.257 120.238 330.516 126.001 342.196 134.21C350.521 140.062 358.017 147.159 363.929 155.442C368.037 161.198 371.355 167.481 374.326 173.897C376.726 179.076 378.918 184.376 381.898 189.246C387.018 197.61 394.389 204.511 402.831 209.5C408.597 212.907 414.881 215.452 421.418 216.913C425.183 217.755 429.102 218.236 432.893 217.521C434.323 217.252 435.746 216.8 436.924 215.947C437.848 215.279 438.598 214.37 439.059 213.327C439.52 212.284 439.685 211.109 439.508 209.984C439.214 208.116 437.937 206.431 436.217 205.644" stroke="#428DFC" stroke-width="0.96725"/>
<defs>
<linearGradient id="paint0_linear" x1="75.1374" y1="353.541" x2="313.012" y2="353.541" gradientUnits="userSpaceOnUse">
<stop stop-color="#428DFC"/>
<stop offset="0.5" stop-color="#2F80EA"/>
<stop offset="1" stop-color="#1D72D8"/>
</linearGradient>
<linearGradient id="paint1_linear" x1="75.1374" y1="353.541" x2="313.012" y2="353.541" gradientUnits="userSpaceOnUse">
<stop stop-color="#428DFC"/>
<stop offset="0.5" stop-color="#2F80EA"/>
<stop offset="1" stop-color="#1D72D8"/>
</linearGradient>
</defs>
</svg>
