<svg width="270" height="270" viewBox="0 0 270 270" fill="none" xmlns="http://www.w3.org/2000/svg">
<path fill-rule="evenodd" clip-rule="evenodd" d="M203.533 34.5718C200.338 37.7662 197.127 40.9769 193.933 44.1713C193.314 44.7906 192.254 44.3506 192.254 43.4868V30.7744C196.019 32.0457 199.768 33.3006 203.533 34.5718Z" fill="#C8F5FC"/>
<path fill-rule="evenodd" clip-rule="evenodd" d="M237.514 34.4904H152.944C152.145 34.4904 151.494 33.8384 151.494 33.0398V1.81306C151.494 1.01446 152.145 0.362549 152.944 0.362549H237.514C238.312 0.362549 238.964 1.01446 238.964 1.81306V33.0398C238.964 33.8384 238.329 34.4904 237.514 34.4904Z" fill="#C8F5FC"/>
<path d="M225.959 13.9875H165.151V15.6173H225.959V13.9875Z" fill="#A2E9FC"/>
<path d="M225.959 18.4696H165.151V20.0994H225.959V18.4696Z" fill="#A2E9FC"/>
<path d="M191.049 22.9514H165.151V24.5812H191.049V22.9514Z" fill="#A2E9FC"/>
<path d="M225.959 13.9875H165.151V15.6173H225.959V13.9875Z" fill="#A2E9FC"/>
<path d="M225.959 18.4696H165.151V20.0994H225.959V18.4696Z" fill="#A2E9FC"/>
<path d="M191.049 22.9514H165.151V24.5812H191.049V22.9514Z" fill="#A2E9FC"/>
<path d="M225.959 9.42419H165.151V11.054H225.959V9.42419Z" fill="#A2E9FC"/>
<path fill-rule="evenodd" clip-rule="evenodd" d="M32.5837 37.2448C35.7781 40.4392 38.9888 43.6499 42.1832 46.8443C42.8025 47.4636 43.8618 47.0235 43.8618 46.1598V33.4474C40.097 34.7023 36.3322 35.9736 32.5837 37.2448Z" fill="#C8F5FC"/>
<path fill-rule="evenodd" clip-rule="evenodd" d="M76.7186 37.4078H2.9706C1.60157 37.4078 0.493317 36.2996 0.493317 34.9305V12.5698C0.493317 11.2008 1.60157 10.0925 2.9706 10.0925H76.7186C78.0876 10.0925 79.1959 11.2008 79.1959 12.5698V34.9468C79.1959 36.3159 78.0876 37.4078 76.7186 37.4078Z" fill="#C8F5FC"/>
<path d="M66.8258 18.6652H13.1731V20.132H66.8258V18.6652Z" fill="#A2E9FC"/>
<path d="M66.8258 22.707H13.1731V24.1738H66.8258V22.707Z" fill="#A2E9FC"/>
<path d="M36.0228 26.7325H13.1731V28.1994H36.0228V26.7325Z" fill="#A2E9FC"/>
<path d="M66.8258 18.6652H13.1731V20.132H66.8258V18.6652Z" fill="#A2E9FC"/>
<path d="M66.8258 22.707H13.1731V24.1738H66.8258V22.707Z" fill="#A2E9FC"/>
<path d="M36.0228 26.7325H13.1731V28.1994H36.0228V26.7325Z" fill="#A2E9FC"/>
<path fill-rule="evenodd" clip-rule="evenodd" d="M219.341 99.1441C216.147 102.338 212.936 105.549 209.742 108.744C209.122 109.363 208.063 108.923 208.063 108.059V95.3467C211.828 96.6016 215.593 97.8729 219.341 99.1441Z" fill="#C8F5FC"/>
<path fill-rule="evenodd" clip-rule="evenodd" d="M266.915 99.193H188.473C187.023 99.193 185.849 98.0196 185.849 96.5691V72.7741C185.849 71.3236 187.023 70.1501 188.473 70.1501H266.915C268.365 70.1501 269.539 71.3236 269.539 72.7741V96.5691C269.539 98.0196 268.365 99.193 266.915 99.193Z" fill="#C8F5FC"/>
<path d="M256.745 79.9614H199.181V81.5097H256.745V79.9614Z" fill="#A2E9FC"/>
<path d="M256.745 84.2479H199.181V85.7962H256.745V84.2479Z" fill="#A2E9FC"/>
<path d="M223.693 88.5341H199.181V90.0824H223.693V88.5341Z" fill="#A2E9FC"/>
<path d="M256.745 79.9614H199.181V81.5097H256.745V79.9614Z" fill="#A2E9FC"/>
<path d="M256.745 84.2479H199.181V85.7962H256.745V84.2479Z" fill="#A2E9FC"/>
<path d="M223.693 88.5341H199.181V90.0824H223.693V88.5341Z" fill="#A2E9FC"/>
<path d="M149.652 214.484C151.272 214.484 152.585 213.171 152.585 211.551C152.585 209.931 151.272 208.617 149.652 208.617C148.032 208.617 146.718 209.931 146.718 211.551C146.718 213.171 148.032 214.484 149.652 214.484Z" fill="#A2E9FC"/>
<path d="M225.86 169.828C227.805 169.828 229.381 168.252 229.381 166.308C229.381 164.363 227.805 162.787 225.86 162.787C223.916 162.787 222.34 164.363 222.34 166.308C222.34 168.252 223.916 169.828 225.86 169.828Z" fill="#A2E9FC"/>
<path d="M43.4869 153.041C45.7011 153.041 47.4961 151.246 47.4961 149.032C47.4961 146.818 45.7011 145.023 43.4869 145.023C41.2726 145.023 39.4776 146.818 39.4776 149.032C39.4776 151.246 41.2726 153.041 43.4869 153.041Z" fill="#A2E9FC"/>
<path d="M42.7862 66.6298C44.6404 66.6298 46.1436 65.1266 46.1436 63.2724C46.1436 61.4182 44.6404 59.915 42.7862 59.915C40.932 59.915 39.4288 61.4182 39.4288 63.2724C39.4288 65.1266 40.932 66.6298 42.7862 66.6298Z" fill="#A2E9FC"/>
<path d="M32.7794 49.0932C33.5714 49.0932 34.2136 48.451 34.2136 47.6589C34.2136 46.8669 33.5714 46.2247 32.7794 46.2247C31.9873 46.2247 31.3451 46.8669 31.3451 47.6589C31.3451 48.451 31.9873 49.0932 32.7794 49.0932Z" fill="#A2E9FC"/>
<path d="M165.233 147.614C168.788 147.614 171.67 144.732 171.67 141.176C171.67 137.621 168.788 134.739 165.233 134.739C161.677 134.739 158.795 137.621 158.795 141.176C158.795 144.732 161.677 147.614 165.233 147.614Z" fill="#A2E9FC"/>
<path d="M182.101 151.754C183.361 151.754 184.382 150.732 184.382 149.472C184.382 148.212 183.361 147.19 182.101 147.19C180.84 147.19 179.819 148.212 179.819 149.472C179.819 150.732 180.84 151.754 182.101 151.754Z" fill="#A2E9FC"/>
<path fill-rule="evenodd" clip-rule="evenodd" d="M229.137 247.504L245.744 233.21L243.984 229.674C243.903 229.315 243.593 229.038 243.169 229.055L220.906 230.684C220.352 230.717 220.026 231.304 220.271 231.809L228.028 247.39C228.273 247.911 228.762 247.944 229.137 247.504Z" fill="#BF2652"/>
<path fill-rule="evenodd" clip-rule="evenodd" d="M230.946 250.877L245.614 234.042C246.07 233.52 245.663 232.721 244.978 232.77L222.699 234.351C222.145 234.384 221.819 234.971 222.063 235.459L229.675 250.714C229.919 251.203 230.571 251.285 230.946 250.877Z" fill="#F95070"/>
<path fill-rule="evenodd" clip-rule="evenodd" d="M172.094 77.9729L171.556 76.881L165.2 80.2546L165.705 81.4118C165.738 81.4607 165.77 81.4933 165.836 81.5259L171.621 83.9705C171.833 84.052 172.013 83.938 172.029 83.7098L172.11 78.0707C172.127 78.0381 172.11 78.0055 172.094 77.9729Z" fill="#BF2652"/>
<path fill-rule="evenodd" clip-rule="evenodd" d="M171.246 76.7996L165.298 79.9614C165.118 80.0591 165.135 80.3036 165.314 80.3851L171.132 82.7972C171.279 82.8624 171.458 82.7483 171.458 82.5853L171.589 76.9951C171.605 76.8322 171.409 76.7181 171.246 76.7996Z" fill="#F95070"/>
<path fill-rule="evenodd" clip-rule="evenodd" d="M184.496 212.512C184.496 212.512 176.282 210.459 175.842 210.182C175.696 210.931 175.582 211.567 175.435 212.317C175.419 212.366 175.419 212.431 175.435 212.496L177.407 219.732C177.472 219.944 177.733 220.026 177.896 219.895L183.991 214.875C184.056 214.827 184.089 214.761 184.089 214.696C184.219 213.963 184.496 212.512 184.496 212.512Z" fill="#BF2652"/>
<path fill-rule="evenodd" clip-rule="evenodd" d="M175.826 210.361L177.798 217.597C177.863 217.809 178.124 217.89 178.287 217.76L184.382 212.74C184.578 212.577 184.513 212.268 184.268 212.202L176.201 209.986C175.972 209.921 175.761 210.133 175.826 210.361Z" fill="#F95070"/>
<path fill-rule="evenodd" clip-rule="evenodd" d="M117.431 19.0562L117.48 17.0841L105.761 17.1819L105.631 19.2354C105.631 19.3169 105.68 19.4147 105.745 19.4962L112.362 27.4496C112.607 27.7266 112.884 27.5963 113.014 27.3681L117.382 19.2191C117.431 19.1702 117.447 19.105 117.431 19.0562Z" fill="#BF2652"/>
<path fill-rule="evenodd" clip-rule="evenodd" d="M117.105 16.7255L106.136 16.8395C105.81 16.8395 105.631 17.2144 105.843 17.4752L112.427 25.3308C112.606 25.5426 112.932 25.51 113.063 25.2656L117.447 17.2959C117.577 17.0351 117.398 16.7255 117.105 16.7255Z" fill="#F95070"/>
<path fill-rule="evenodd" clip-rule="evenodd" d="M28.7539 223.285L30.5304 225.11L40.9611 214.223L39.1846 212.251H39.1683C39.0868 212.186 38.9727 212.137 38.826 212.121L25.6899 211.045C25.2336 211.029 24.9402 211.371 25.0543 211.811L28.6072 223.089C28.6561 223.171 28.705 223.236 28.7539 223.285Z" fill="#BF2652"/>
<path fill-rule="evenodd" clip-rule="evenodd" d="M31.1988 225.078L40.9613 214.875C41.2546 214.582 41.059 214.077 40.6353 214.044L27.4666 213.05C27.1243 213.017 26.8636 213.36 26.9614 213.686L30.3676 224.882C30.4817 225.241 30.9381 225.338 31.1988 225.078Z" fill="#F95070"/>
<path fill-rule="evenodd" clip-rule="evenodd" d="M61.8065 189.304L60.8286 188.717L57.5202 194.568L58.498 195.22C58.5469 195.236 58.5958 195.253 58.661 195.236L64.512 194.226C64.7238 194.177 64.7401 194.014 64.6586 193.884L61.8554 189.386C61.8554 189.337 61.8391 189.32 61.8065 189.304Z" fill="#BF2652"/>
<path fill-rule="evenodd" clip-rule="evenodd" d="M60.5514 188.799L57.4711 194.275C57.3733 194.438 57.52 194.633 57.6992 194.601L63.485 193.574C63.6317 193.541 63.7132 193.378 63.6317 193.248L60.9262 188.799C60.8447 188.652 60.6329 188.652 60.5514 188.799Z" fill="#F95070"/>
<path fill-rule="evenodd" clip-rule="evenodd" d="M28.4933 94.5154L28.3467 93.016L25.8042 93.0812C24.8589 92.8368 24.4026 92.0708 24.7937 91.3536L25.4293 90.1802C25.5434 89.9683 25.576 89.7565 25.5597 89.5609L25.413 87.98L24.9567 88.0289C24.9567 88.0289 22.3816 88.6156 22.0068 89.3164L21.3711 90.4899C20.98 91.207 19.9043 91.5818 18.9591 91.3374L17.4108 90.9462C16.6122 90.7506 15.1779 90.7995 15.1779 90.7995L14.7216 90.8484L14.8683 92.2989C14.852 92.8368 15.292 93.342 16.0091 93.5213L17.5574 93.9124C18.5027 94.1569 18.9591 94.9229 18.5679 95.64L17.6552 95.8845L17.8019 97.335C17.8019 97.8565 18.242 98.3455 18.9591 98.5247C19.9043 98.7692 20.98 98.3781 21.3711 97.6772L22.0068 96.5038C22.3979 95.7867 23.4736 95.4118 24.4189 95.6563L25.9672 96.0475C26.9124 96.2919 27.9881 95.9008 28.3792 95.2C28.4933 94.9881 28.5259 94.7436 28.4933 94.5154Z" fill="#BF2652"/>
<path fill-rule="evenodd" clip-rule="evenodd" d="M21.8435 87.7193L21.2079 88.8928C20.8167 89.6099 19.7411 89.9848 18.7958 89.7403L17.2475 89.3491C16.3022 89.1047 15.2266 89.4958 14.8354 90.1966C14.4443 90.9137 14.9006 91.6797 15.8459 91.9242L17.3942 92.3154C18.3395 92.5598 18.7958 93.3258 18.4047 94.0429L17.769 95.2164C17.3779 95.9335 17.8342 96.6995 18.7795 96.944C19.7248 97.1884 20.8004 96.7973 21.1916 96.0965L21.8272 94.923C22.2184 94.2059 23.294 93.8311 24.2393 94.0755L25.7876 94.4667C26.7329 94.7111 27.8085 94.32 28.1997 93.6192C28.5908 92.9021 28.1345 92.1361 27.1892 91.8916L25.6409 91.5005C24.6956 91.256 24.2393 90.49 24.6305 89.7729L25.2661 88.5994C25.6572 87.8823 25.2009 87.1163 24.2556 86.8719C23.3103 86.6274 22.2347 87.0185 21.8435 87.7193Z" fill="#BF2652"/>
<path fill-rule="evenodd" clip-rule="evenodd" d="M21.8435 87.7193L21.2079 88.8928C20.8167 89.6099 19.7411 89.9848 18.7958 89.7403L17.2475 89.3491C16.3022 89.1047 15.2266 89.4958 14.8354 90.1966C14.4443 90.9137 14.9006 91.6797 15.8459 91.9242L17.3942 92.3154C18.3395 92.5598 18.7958 93.3258 18.4047 94.0429L17.769 95.2164C17.3779 95.9335 17.8342 96.6995 18.7795 96.944C19.7248 97.1884 20.8004 96.7973 21.1916 96.0965L21.8272 94.923C22.2184 94.2059 23.294 93.8311 24.2393 94.0755L25.7876 94.4667C26.7329 94.7111 27.8085 94.32 28.1997 93.6192C28.5908 92.9021 28.1345 92.1361 27.1892 91.8916L25.6409 91.5005C24.6956 91.256 24.2393 90.49 24.6305 89.7729L25.2661 88.5994C25.6572 87.8823 25.2009 87.1163 24.2556 86.8719C23.3103 86.6274 22.2347 87.0185 21.8435 87.7193Z" fill="#FC6C85"/>
<path fill-rule="evenodd" clip-rule="evenodd" d="M243.935 28.5089L242.012 27.7755L240.676 30.5136C239.844 31.3773 238.638 31.3936 237.986 30.5625L236.911 29.1934C236.715 28.949 236.487 28.786 236.226 28.6882L234.189 27.9059L233.993 28.4111C233.993 28.4111 233.26 31.4914 233.928 32.3226L235.004 33.6916C235.656 34.5228 235.525 35.9082 234.694 36.772L233.341 38.1899C232.641 38.907 231.907 40.4879 231.907 40.4879L231.712 40.9931L233.586 41.7102C234.254 42.0525 235.102 41.8732 235.737 41.2213L237.09 39.8034C237.921 38.9396 239.127 38.9233 239.779 39.7545L239.567 40.8627L241.442 41.5798C242.093 41.8895 242.941 41.7102 243.56 41.0583C244.391 40.1945 244.522 38.8255 243.87 37.978L242.794 36.609C242.142 35.7778 242.273 34.3925 243.104 33.5287L244.457 32.1108C245.288 31.247 245.418 29.8779 244.766 29.0305C244.506 28.786 244.245 28.6067 243.935 28.5089Z" fill="#BF2652"/>
<path fill-rule="evenodd" clip-rule="evenodd" d="M231.826 31.5241L232.901 32.8931C233.553 33.7243 233.423 35.1097 232.592 35.9735L231.239 37.3914C230.408 38.2552 230.277 39.6242 230.929 40.4717C231.581 41.3029 232.787 41.2866 233.618 40.4228L234.971 39.0049C235.802 38.1411 237.008 38.1248 237.66 38.956L238.736 40.325C239.388 41.1562 240.594 41.1399 241.425 40.2761C242.256 39.4123 242.387 38.0433 241.735 37.1958L240.659 35.8268C240.007 34.9956 240.137 33.6103 240.969 32.7465L242.321 31.3286C243.153 30.4648 243.283 29.0957 242.631 28.2482C241.979 27.4171 240.773 27.4334 239.942 28.2971L238.589 29.7151C237.758 30.5788 236.552 30.5951 235.9 29.764L234.824 28.3949C234.172 27.5637 232.966 27.58 232.135 28.4438C231.304 29.3076 231.157 30.6929 231.826 31.5241Z" fill="#BF2652"/>
<path fill-rule="evenodd" clip-rule="evenodd" d="M231.826 31.5241L232.901 32.8931C233.553 33.7243 233.423 35.1097 232.592 35.9735L231.239 37.3914C230.408 38.2552 230.277 39.6242 230.929 40.4717C231.581 41.3029 232.787 41.2866 233.618 40.4228L234.971 39.0049C235.802 38.1411 237.008 38.1248 237.66 38.956L238.736 40.325C239.388 41.1562 240.594 41.1399 241.425 40.2761C242.256 39.4123 242.387 38.0433 241.735 37.1958L240.659 35.8268C240.007 34.9956 240.137 33.6103 240.969 32.7465L242.321 31.3286C243.153 30.4648 243.283 29.0957 242.631 28.2482C241.979 27.4171 240.773 27.4334 239.942 28.2971L238.589 29.7151C237.758 30.5788 236.552 30.5951 235.9 29.764L234.824 28.3949C234.172 27.5637 232.966 27.58 232.135 28.4438C231.304 29.3076 231.157 30.6929 231.826 31.5241Z" fill="#FC6C85"/>
<path fill-rule="evenodd" clip-rule="evenodd" d="M156.269 45.8499C155.128 45.8499 154.068 45.4099 153.27 44.6113L149.864 41.205C148.853 40.1946 147.207 40.1946 146.197 41.205L142.79 44.6113C141.992 45.4099 140.916 45.8499 139.791 45.8499C138.651 45.8499 137.591 45.4099 136.793 44.6113C135.13 42.9489 135.13 40.2598 136.793 38.6137L140.199 35.2074C140.688 34.7185 140.965 34.0666 140.965 33.382C140.965 32.6975 140.688 32.0456 140.199 31.5567L136.793 28.1504C135.13 26.488 135.13 23.7989 136.793 22.1528C138.455 20.4904 141.144 20.4904 142.79 22.1528L146.197 25.5591C146.685 26.048 147.337 26.3251 148.022 26.3251C148.706 26.3251 149.358 26.048 149.847 25.5591L153.254 22.1528C154.916 20.4904 157.605 20.4904 159.251 22.1528C160.05 22.9514 160.49 24.0271 160.49 25.1516C160.49 26.2762 160.05 27.3518 159.251 28.1504L155.845 31.5567C154.834 32.5672 154.834 34.2132 155.845 35.2237L159.251 38.63C160.05 39.4286 160.49 40.5042 160.49 41.6288C160.49 42.7533 160.05 43.829 159.251 44.6276C158.469 45.4099 157.41 45.8499 156.269 45.8499ZM148.022 40.1131C148.804 40.1131 149.538 40.4227 150.092 40.9606L153.498 44.3668C154.231 45.1002 155.226 45.5077 156.269 45.5077C157.312 45.5077 158.306 45.1002 159.039 44.3668C159.773 43.6334 160.18 42.6393 160.18 41.5962C160.18 40.5531 159.773 39.559 159.039 38.8255L155.633 35.4193C154.492 34.2784 154.492 32.4368 155.633 31.2959L159.039 27.8897C159.773 27.1562 160.18 26.1621 160.18 25.119C160.18 24.0759 159.773 23.0818 159.039 22.3484C157.507 20.8164 155.03 20.8164 153.498 22.3484L150.092 25.7546C149.538 26.3088 148.804 26.6021 148.022 26.6021C147.24 26.6021 146.506 26.2925 145.952 25.7546L142.546 22.3484C141.014 20.8164 138.537 20.8164 137.005 22.3484C135.473 23.8804 135.473 26.3577 137.005 27.8897L140.411 31.2959C140.965 31.85 141.258 32.5835 141.258 33.3657C141.258 34.148 140.949 34.8815 140.411 35.4356L137.005 38.8418C135.473 40.3738 135.473 42.8511 137.005 44.3831C137.738 45.1165 138.732 45.524 139.775 45.524C140.818 45.524 141.812 45.1165 142.546 44.3831L145.952 40.9769C146.506 40.4064 147.24 40.1131 148.022 40.1131Z" fill="#BF2652"/>
<path fill-rule="evenodd" clip-rule="evenodd" d="M257.446 112.639C256.533 112.639 255.669 112.28 255.034 111.645L252.312 108.923C251.513 108.124 250.226 108.124 249.427 108.923L246.705 111.645C246.053 112.297 245.206 112.639 244.293 112.639C243.381 112.639 242.517 112.28 241.881 111.645C241.246 111.009 240.887 110.145 240.887 109.233C240.887 108.32 241.246 107.456 241.881 106.821L244.603 104.099C245.402 103.3 245.402 102.013 244.603 101.214L241.881 98.4923C241.229 97.8404 240.887 96.9929 240.887 96.0802C240.887 95.1675 241.246 94.3037 241.881 93.6681C242.533 93.0162 243.381 92.674 244.293 92.674C245.206 92.674 246.07 93.0325 246.705 93.6681L249.427 96.3899C250.226 97.1885 251.513 97.1885 252.312 96.3899L255.034 93.6681C255.686 93.0162 256.533 92.674 257.446 92.674C258.358 92.674 259.222 93.0325 259.858 93.6681C260.493 94.3037 260.852 95.1675 260.852 96.0802C260.852 96.9929 260.493 97.8567 259.858 98.4923L257.136 101.214C256.337 102.013 256.337 103.3 257.136 104.099L259.858 106.821C260.51 107.472 260.852 108.32 260.852 109.233C260.852 110.145 260.493 111.009 259.858 111.645C259.222 112.28 258.358 112.639 257.446 112.639ZM250.861 107.994C251.464 107.994 252.067 108.222 252.524 108.678L255.245 111.4C255.832 111.987 256.598 112.313 257.429 112.313C258.261 112.313 259.027 111.987 259.613 111.4C260.2 110.814 260.526 110.048 260.526 109.216C260.526 108.385 260.2 107.619 259.613 107.032L256.892 104.311C255.979 103.398 255.979 101.899 256.892 100.97L259.613 98.2478C260.2 97.6611 260.526 96.8951 260.526 96.0639C260.526 95.2327 260.2 94.4667 259.613 93.88C259.027 93.2933 258.261 92.9673 257.429 92.9673C256.598 92.9673 255.832 93.2933 255.245 93.88L252.524 96.6017C251.611 97.5144 250.112 97.5144 249.183 96.6017L246.461 93.88C245.874 93.2933 245.108 92.9673 244.277 92.9673C243.446 92.9673 242.68 93.2933 242.093 93.88C241.506 94.4667 241.18 95.249 241.18 96.0639C241.18 96.8788 241.506 97.6611 242.093 98.2478L244.815 100.97C245.728 101.882 245.728 103.382 244.815 104.311L242.093 107.032C241.506 107.619 241.18 108.385 241.18 109.216C241.18 110.048 241.506 110.814 242.093 111.4C242.68 111.987 243.446 112.313 244.277 112.313C245.108 112.313 245.874 111.987 246.461 111.4L249.183 108.678C249.655 108.222 250.258 107.994 250.861 107.994Z" fill="#BF2652"/>
<path fill-rule="evenodd" clip-rule="evenodd" d="M13.8248 47.7566C13.0914 47.7566 12.4069 47.4633 11.8854 46.958L9.71778 44.7904C9.09846 44.1711 8.10429 44.1711 7.48497 44.7904L5.33364 46.9417C4.81211 47.4633 4.1276 47.7403 3.39419 47.7403C2.66079 47.7403 1.97627 47.447 1.45474 46.9417C0.933208 46.4202 0.656144 45.7357 0.656144 45.0023C0.656144 44.2689 0.949506 43.5844 1.45474 43.0628L3.60606 40.9115C3.89943 40.6182 4.06241 40.2107 4.06241 39.787C4.06241 39.3632 3.89943 38.9721 3.60606 38.6624L1.45474 36.5111C0.37908 35.4354 0.37908 33.6915 1.45474 32.6322C2.5304 31.5565 4.25798 31.5565 5.33364 32.6322L7.48497 34.7835C7.77833 35.0769 8.18577 35.2398 8.60952 35.2398C9.03327 35.2398 9.42441 35.0769 9.73408 34.7835L11.8854 32.6322C12.4069 32.1107 13.0914 31.8336 13.8248 31.8336C14.5583 31.8336 15.2428 32.127 15.7643 32.6322C16.2858 33.1537 16.5629 33.8382 16.5629 34.5716C16.5629 35.305 16.2695 35.9896 15.7643 36.5111L13.613 38.6624C13.3196 38.9558 13.1566 39.3632 13.1566 39.787C13.1566 40.2107 13.3196 40.6019 13.613 40.9115L15.7643 43.0628C16.2858 43.5844 16.5629 44.2689 16.5629 45.0023C16.5629 45.7357 16.2695 46.4202 15.7643 46.9417C15.2428 47.4633 14.542 47.7566 13.8248 47.7566ZM8.59322 44.0081C9.08216 44.0081 9.5711 44.1874 9.94595 44.5622L12.0973 46.7136C12.5536 47.1699 13.1566 47.4144 13.8086 47.4144C14.4605 47.4144 15.0635 47.1699 15.5198 46.7136C15.9762 46.2572 16.2206 45.6542 16.2206 45.0023C16.2206 44.3504 15.9762 43.7474 15.5198 43.291L13.3685 41.1397C13.01 40.7811 12.8144 40.3085 12.8144 39.787C12.8144 39.2654 13.01 38.7928 13.3685 38.4342L15.5198 36.2829C15.9762 35.8266 16.2206 35.2236 16.2206 34.5716C16.2206 33.9197 15.9762 33.3167 15.5198 32.8604C15.0635 32.404 14.4605 32.1595 13.8086 32.1595C13.1566 32.1595 12.5536 32.404 12.0973 32.8604L9.94595 35.0117C9.58739 35.3702 9.11475 35.5658 8.59322 35.5658C8.07169 35.5658 7.59905 35.3702 7.2405 35.0117L5.08917 32.8604C4.1439 31.9151 2.61189 31.9151 1.66661 32.8604C0.721336 33.8056 0.721336 35.3376 1.66661 36.2829L3.81794 38.4342C4.17649 38.7928 4.37207 39.2654 4.37207 39.787C4.37207 40.3085 4.17649 40.7811 3.81794 41.1397L1.66661 43.291C1.21027 43.7474 0.965804 44.3504 0.965804 45.0023C0.965804 45.6542 1.21027 46.2572 1.66661 46.7136C2.12296 47.1699 2.72598 47.4144 3.37789 47.4144C4.02981 47.4144 4.63283 47.1699 5.08917 46.7136L7.2405 44.5622C7.63165 44.1874 8.12058 44.0081 8.59322 44.0081Z" fill="#BF2652"/>
<path d="M113.552 269.18C143.84 269.18 168.394 265.941 168.394 261.944C168.394 257.948 143.84 254.708 113.552 254.708C83.2632 254.708 58.7094 257.948 58.7094 261.944C58.7094 265.941 83.2632 269.18 113.552 269.18Z" fill="#ADB6C4"/>
<path d="M115.459 264.372C130.094 264.372 141.959 262.774 141.959 260.803C141.959 258.832 130.094 257.234 115.459 257.234C100.823 257.234 88.9582 258.832 88.9582 260.803C88.9582 262.774 100.823 264.372 115.459 264.372Z" fill="#353437"/>
<path fill-rule="evenodd" clip-rule="evenodd" d="M124.178 181.856C123.934 181.856 123.559 181.872 123.103 181.856C122.288 181.823 122.043 181.758 121.766 181.791C121.293 181.823 120.642 182.068 119.892 183.095C120.055 183.143 122.418 183.828 123.689 182.589C123.852 182.41 124.032 182.182 124.178 181.856Z" fill="#0A9CE5"/>
<path d="M94.4504 66.3201C94.5156 66.2875 94.6134 66.2549 94.7438 66.2223C94.8742 66.1897 94.9883 66.1734 95.1024 66.1734C95.4935 66.1571 96.0313 66.1897 96.1291 66.1897C95.7543 66.4179 95.3957 66.646 95.0209 66.8742C94.809 66.6949 94.6297 66.4993 94.4504 66.3201Z" fill="#262F69"/>
<path d="M129.361 87.0833C130.013 85.6002 131.61 85.4535 131.61 85.4535C131.61 85.4535 141.861 84.1497 142.579 84.0519C143.149 83.6934 143.491 83.4815 143.801 83.2696C144.078 83.0741 144.306 82.8948 144.665 82.8296C144.974 82.7807 145.251 82.8296 145.431 82.8785C145.806 82.4384 146.197 82.0147 146.572 81.5746C146.539 81.0694 146.506 80.5642 146.457 80.0589C146.457 79.9937 146.457 79.5537 146.783 79.244C147.077 78.967 147.517 78.8855 147.924 79.0322C147.973 79.8308 148.038 80.6294 148.087 81.4117C148.315 81.4117 148.527 81.5583 148.576 81.7865C148.625 81.9984 148.511 82.2266 148.299 82.3243C148.055 82.5688 147.843 82.7807 147.598 83.0252C147.419 83.4163 147.24 83.8238 147.044 84.2149C146.783 84.7853 146.213 85.1439 145.594 85.1602L144.388 85.1928L143.296 85.7958C142.253 85.9914 137.298 87.1485 135.864 87.5234C135.668 87.5886 135.407 87.7027 135.098 87.8982C134.299 88.4198 133.924 89.1043 133.582 89.7399C133.321 90.2451 126.688 100.79 121.701 106.429C120.756 102.762 120.609 101.279 119.68 97.6118C123.526 93.8796 128.562 88.9902 129.361 87.0833Z" fill="#F7B2B2"/>
<path d="M146.62 81.852C146.604 81.852 146.571 81.8357 146.555 81.8194C146.522 81.7868 146.522 81.7379 146.571 81.7053C146.767 81.5423 147.077 81.3304 147.517 81.2815C147.761 81.2489 148.005 81.2815 148.234 81.363C148.283 81.3793 148.299 81.4282 148.283 81.4608C148.266 81.5097 148.217 81.526 148.185 81.5097C147.973 81.4445 147.745 81.4119 147.533 81.4445C147.109 81.4934 146.816 81.7053 146.669 81.8194C146.653 81.852 146.636 81.852 146.62 81.852Z" fill="#F38484"/>
<path d="M144.387 85.2417C144.355 85.2417 144.339 85.2254 144.322 85.1929C144.306 85.1603 144.322 85.1114 144.355 85.0788C145.023 84.7039 145.593 84.3128 146.001 83.9379C146.164 83.7912 146.311 83.612 146.294 83.4164C146.294 83.2208 146.131 83.0578 146.066 83.0089C145.919 82.8623 145.756 82.7971 145.642 82.7808C145.593 82.7645 145.577 82.7319 145.577 82.683C145.593 82.6341 145.626 82.6178 145.675 82.6178C145.805 82.6504 146.017 82.7156 146.18 82.8949C146.245 82.9601 146.441 83.1556 146.457 83.4164C146.474 83.6772 146.294 83.8727 146.099 84.052C145.691 84.4432 145.105 84.8343 144.42 85.2254C144.404 85.2417 144.387 85.2417 144.387 85.2417Z" fill="#F38484"/>
<path d="M122.776 105.305C122.76 105.305 122.744 105.305 122.728 105.288C122.695 105.256 122.695 105.207 122.711 105.174C127.552 99.3233 133.321 90.1313 133.533 89.7238C133.859 89.1371 134.25 88.3874 135.081 87.8495C135.326 87.6866 135.587 87.5562 135.864 87.4584C137.314 87.0672 142.203 85.9264 143.295 85.7308L144.371 85.1441C144.387 85.1441 144.387 85.1278 144.404 85.1278L145.61 85.0952C146.196 85.0789 146.734 84.7203 146.979 84.1825L147.533 82.9928C147.533 82.9765 147.549 82.9765 147.549 82.9765L148.25 82.2757L148.266 82.2594C148.429 82.1779 148.527 81.9986 148.494 81.803C148.446 81.6074 148.283 81.4771 148.087 81.4934C148.038 81.4934 148.006 81.4608 148.006 81.4119L147.843 79.0813C147.484 78.9672 147.093 79.0487 146.832 79.2931C146.539 79.5702 146.522 79.9451 146.539 80.0428L146.653 81.5586C146.653 81.5749 146.653 81.6074 146.637 81.6237L145.496 82.9276C145.479 82.9439 145.447 82.9602 145.414 82.9439C145.17 82.8624 144.925 82.8461 144.697 82.895C144.371 82.9439 144.159 83.1069 143.898 83.2861L143.866 83.3187C143.703 83.4328 143.507 83.5469 143.295 83.661C143.1 83.7751 142.872 83.9055 142.595 84.0684C142.578 84.0684 142.578 84.0847 142.562 84.0847C141.845 84.1988 131.789 85.4375 131.691 85.4538C131.675 85.4538 130.078 85.6656 129.459 87.0998C128.758 88.7622 125.042 92.5107 121.603 95.8844C121.57 95.917 121.521 95.917 121.489 95.8844C121.456 95.8518 121.456 95.8029 121.489 95.7703C124.911 92.3967 128.611 88.6807 129.296 87.0347C129.964 85.5189 131.642 85.2908 131.659 85.2908C131.757 85.2745 141.682 84.0358 142.513 83.9218C142.774 83.7588 143.002 83.6284 143.198 83.5143C143.41 83.4002 143.605 83.2861 143.752 83.172L143.784 83.1395C144.061 82.9439 144.29 82.7809 144.648 82.7157C144.893 82.6668 145.137 82.6831 145.398 82.7646L146.474 81.526L146.359 80.0428C146.359 79.9125 146.376 79.4887 146.702 79.1628C147.011 78.8694 147.5 78.7716 147.924 78.9346C147.957 78.9509 147.973 78.9672 147.973 78.9998L148.136 81.3141C148.38 81.3467 148.576 81.5097 148.625 81.7541C148.674 81.9986 148.56 82.2594 148.315 82.3734L147.631 83.058L147.093 84.2314C146.816 84.8181 146.229 85.2093 145.577 85.2256L144.404 85.2582L143.344 85.8449C143.344 85.8449 143.328 85.8449 143.328 85.8612C142.269 86.0568 137.347 87.2139 135.913 87.5888C135.652 87.6866 135.407 87.8007 135.179 87.9636C134.381 88.4852 134.022 89.1697 133.696 89.7727C133.468 90.1801 127.698 99.3885 122.858 105.256C122.825 105.305 122.793 105.305 122.776 105.305Z" fill="#F38484"/>
<path d="M120.837 95.8028C121.669 95.0694 122.532 94.2871 123.38 93.4722C124.162 92.7225 124.928 91.9891 125.661 91.2557C126.15 91.5654 126.656 91.924 127.177 92.3477C128.579 93.4723 129.589 94.6783 130.323 95.7051C129.459 96.9437 128.595 98.1986 127.715 99.4373C125.89 102.029 124.064 104.587 122.239 107.081C121.783 103.332 121.31 99.5677 120.837 95.8028Z" fill="#5067BC"/>
<path d="M101.035 244.554C100.807 245.304 101.052 248.025 100.334 249.981C100.432 250.812 105.37 252.67 105.925 252.687C106.104 252.687 111.808 254.023 113.422 250.845C114.122 249.443 114.53 248.596 114.432 247.96C112.705 247.162 112.183 244.945 112.102 244.244C111.987 243.299 111.939 242.435 111.939 241.637C111.792 241.017 111.352 239.502 109.983 238.54C107.799 237.041 104.604 237.904 102.828 239.681C100.986 241.523 101.019 244 101.035 244.554Z" fill="#F7B2B2"/>
<path fill-rule="evenodd" clip-rule="evenodd" d="M100.334 225.86C100.367 229.69 99.8125 232.037 99.2421 233.52C99.0791 233.928 98.6717 234.938 98.7369 236.258C98.8021 237.611 99.3073 238.703 99.7473 239.436C99.4866 239.86 99.1117 240.577 99.0302 241.539C98.8347 243.723 100.301 245.255 100.546 245.516C101.051 243.935 101.508 242.093 101.768 240.023C102.551 234.042 101.393 229.038 100.334 225.86Z" fill="#027BC6"/>
<path fill-rule="evenodd" clip-rule="evenodd" d="M105.223 184.48C104.946 184.675 103.267 185.914 103.218 187.902C103.202 188.424 103.3 188.897 103.43 189.255C102.078 190.559 102.974 192.221 102.827 193.916C103.43 193.069 104.164 191.537 104.669 189.907C105.386 187.642 105.354 185.67 105.223 184.48Z" fill="#027BC6"/>
<path fill-rule="evenodd" clip-rule="evenodd" d="M108.842 179.036C108.206 179.542 107.359 180.324 106.56 181.481C105.827 182.557 105.419 183.551 104.93 185.05C104.017 187.87 103.48 190.363 102.974 193.02C102.714 194.405 102.437 195.888 102.159 197.73C100.905 206.205 100.53 215.935 100.53 215.935C100.057 228.354 100.367 240.317 100.53 245.532C101.817 245.646 103.431 245.646 105.24 245.369C108.32 244.896 110.7 243.804 112.232 242.924C112.264 241.311 112.362 238.948 112.558 236.095C113.112 228.386 114.122 222.747 115.328 216.261C117.105 206.612 118.653 198.578 119.875 192.352C120.478 189.255 121.065 186.175 121.668 183.078C121.88 180.438 120.869 179.085 120.527 178.694C118.474 176.233 113.47 175.956 108.842 179.036Z" fill="#027BC6"/>
<path fill-rule="evenodd" clip-rule="evenodd" d="M104.457 130.257C103.626 130.664 102.404 131.414 101.361 132.702C99.5352 134.967 99.3071 137.591 99.2419 139.204C98.9974 145.202 100.252 150.727 101.361 156.594C101.638 158.11 102.355 162.527 103.805 171.393C104.359 174.832 104.816 177.651 105.109 179.525C105.174 180.014 105.256 180.748 105.272 181.644C105.305 183.372 105.256 183.975 104.962 185.262C105.093 187.593 107.749 188.717 108.352 189.125C111.693 191.325 115.409 190.184 115.67 190.103C119.125 188.978 120.592 185.979 121.032 185.067C121.798 183.486 121.863 182.329 122.173 178.238C122.841 169.258 122.727 172.24 122.825 169.942C123.249 159.137 123.444 153.726 123.314 151.574C122.906 145.235 122.613 141.242 120.054 136.776C118.734 134.478 116.876 131.332 113.063 129.947C109.249 128.546 105.728 129.752 104.457 130.257Z" fill="#027BC6"/>
<path d="M109.004 178.825C109.656 182.508 110.732 184.382 109.347 189.467C106.739 202.473 104.93 216.424 105.272 245.369C108.353 244.896 110.732 243.804 112.264 242.924C112.297 241.311 112.394 238.948 112.59 236.095C113.144 228.387 114.155 222.747 115.361 216.261C117.137 206.613 118.685 198.578 119.908 192.352C120.511 189.255 121.097 186.175 121.701 183.078C121.912 180.438 120.902 179.085 120.56 178.694C118.474 176.233 113.633 175.761 109.004 178.825Z" fill="#828282" fill-opacity="0.3"/>
<path d="M96.1617 127.323C95.4609 128.497 92.4295 133.794 94.043 140.329C94.3527 141.616 95.5424 146.392 99.731 149.114C104.653 152.308 111.938 151.493 117.773 146.995C118.555 146.098 119.321 145.072 120.054 143.898C123.363 138.569 123.836 133.093 123.787 129.752C123.347 128.725 120.69 122.874 114.35 120.804C108.059 118.767 100.676 121.326 96.1617 127.323Z" fill="#828282" fill-opacity="0.3"/>
<path d="M104.457 130.257C103.626 130.664 102.404 131.414 101.361 132.702C99.5353 134.967 99.3071 137.591 99.2419 139.204C98.9975 145.202 101.41 157.702 102.518 163.57C104.359 164.922 106.038 168.606 106.804 170.676C108.124 174.799 109.151 178.58 109.77 184.268C109.999 185.621 109.705 187.332 109.298 189.011C110.993 190.282 115.475 190.168 115.686 190.103C119.142 188.978 120.608 185.979 121.049 185.067C121.815 183.486 121.88 182.329 122.189 178.238C122.858 169.258 122.743 172.24 122.841 169.942C123.265 159.137 123.461 153.726 123.33 151.574C122.923 145.235 122.629 141.242 120.071 136.776C118.75 134.478 116.893 131.332 113.079 129.947C109.249 128.546 105.728 129.752 104.457 130.257Z" fill="#828282" fill-opacity="0.3"/>
<path d="M113.747 184.985C113.731 184.985 113.731 184.985 113.747 184.985C113.698 184.985 113.666 184.936 113.666 184.904C113.878 182.752 113.992 180.569 113.992 178.401C113.992 175.321 113.78 172.208 113.34 169.144C113.34 169.095 113.372 169.062 113.405 169.046C113.454 169.046 113.487 169.078 113.503 169.111C113.943 172.175 114.155 175.304 114.155 178.385C114.155 180.552 114.041 182.736 113.829 184.904C113.812 184.969 113.78 184.985 113.747 184.985Z" fill="#828282" fill-opacity="0.3"/>
<path d="M107.065 243.201C107.016 243.201 106.984 243.169 106.984 243.12C106.658 234.009 107.261 224.866 108.776 215.951C109.347 212.578 110.064 209.188 110.895 205.863C110.911 205.814 110.944 205.798 110.993 205.798C111.042 205.814 111.058 205.846 111.058 205.895C110.227 209.22 109.51 212.61 108.939 215.967C107.424 224.866 106.837 233.993 107.147 243.104C107.163 243.169 107.114 243.201 107.065 243.201C107.081 243.201 107.081 243.201 107.065 243.201Z" fill="#828282" fill-opacity="0.3"/>
<path d="M89.5611 203.793C89.2677 204.021 86.6274 204.901 86.0896 204.95C82.4715 204.51 81.624 206.987 81.461 208.275C80.8906 213.018 83.1886 221.069 88.4039 217.451C89.1047 216.717 93.3422 213.93 94.1082 213.555C99.6821 210.296 94.4015 201.854 89.5611 203.793Z" fill="#F7B2B2"/>
<path d="M82.3413 141.144C83.4985 140.443 84.8023 139.775 86.2365 139.188C93.5706 136.254 100.546 137.265 104.441 138.21C106.479 132.441 108.565 124.308 108.662 114.464C108.858 94.9392 101.068 80.3852 96.9605 73.8171C99.4867 89.7565 96.4227 99.9264 93.0653 106.331C89.545 113.014 83.8733 119.06 82.3413 130.077C81.6894 134.706 81.9991 138.601 82.3413 141.144Z" fill="#262F69"/>
<path fill-rule="evenodd" clip-rule="evenodd" d="M105.208 69.1724C106.544 70.1339 108.32 71.4867 110.309 73.1816C113.063 75.5448 114.889 77.2887 116.812 79.4726C118.083 80.9069 119.696 82.8626 121.359 85.3236C121.652 85.7799 122.06 86.5133 122.337 87.4912C122.956 89.6914 122.516 91.6798 122.223 92.9184C121.831 94.5808 121.505 94.6949 121.359 96.0639C121.196 97.5959 121.457 98.7857 121.571 99.3235C122.353 102.811 122.695 106.413 123.738 109.836C124.749 113.177 125.221 119.891 123.869 130.192C122.483 129.98 99.4055 128.171 95.2007 129.002C95.4615 127.666 100.123 118.832 100.546 117.43C100.546 117.43 100.986 116.224 100.938 115.035C100.938 112.248 98.8188 108.516 98.0528 107.13C96.7327 104.653 94.9888 100.921 93.7176 96.178C90.5721 84.4435 90.7514 68.276 96.6512 66.0432C98.1017 65.4727 100.66 65.4727 105.208 69.1724Z" fill="#FFF9B0"/>
<path d="M103.985 128.823C100.514 128.611 96.1294 128.806 95.2004 128.986C95.4612 127.649 100.122 118.816 100.546 117.414C100.546 117.414 100.986 116.208 100.937 115.018C100.937 112.231 98.8185 108.499 98.0525 107.114C96.7324 104.637 94.9885 100.904 93.7173 96.1616C90.5718 84.4272 89.2517 69.7591 95.1515 67.5262C98.8022 71.2422 103.496 75.8708 105.55 87.3608C108.157 102.746 108.532 118.408 103.985 128.823Z" fill="#F9C973"/>
<path d="M105.386 86.5459C105.517 87.3445 105.826 88.5994 106.609 89.9359C106.951 90.5226 107.603 91.6146 108.776 92.4621C110.911 93.9941 113.405 93.7333 114.204 93.6192C113.535 94.4015 112.557 95.3468 111.237 96.2269C109.347 97.4818 107.538 98.0522 106.315 98.3293C105.663 95.7868 105.174 92.7065 105.223 89.2188C105.256 88.2898 105.321 87.3934 105.386 86.5459Z" fill="#F9C973"/>
<path d="M122.271 87.2792C122.32 87.7355 122.369 88.4526 122.19 89.2838C122.075 89.8054 121.798 91.0929 120.706 92.1849C120.266 92.6249 119.81 92.9183 119.37 93.1464C119.093 93.2931 119.011 93.6517 119.223 93.8961C119.419 94.108 119.663 94.3199 119.957 94.5318C120.56 94.9392 121.146 95.1022 121.505 95.1837C121.603 94.9392 121.717 94.5969 121.864 94.1732C121.945 93.9287 122.19 93.179 122.353 92.5271C122.499 91.9078 122.76 90.8158 122.678 89.4631C122.646 88.9253 122.564 88.1593 122.271 87.2792Z" fill="#F9C973"/>
<path d="M119.126 93.6191C119.729 93.994 121.017 94.8415 121.554 95.1023C121.489 95.363 121.424 95.6564 121.375 96.0475C121.212 97.5795 121.473 98.7693 121.587 99.3071C122.369 102.795 122.712 106.397 123.755 109.819C121.929 105.191 118.996 93.994 119.126 93.6191Z" fill="#F9C973"/>
<path d="M123.885 130.192L118.132 129.752C113.601 129.393 112.655 129.328 111.107 129.23C108.434 129.051 106.658 128.937 104.197 128.872C100.693 128.774 98.6882 128.855 97.1888 128.937C96.5369 128.969 95.885 129.018 95.233 129.084C95.1841 129.084 95.1516 129.051 95.1516 129.002C95.1516 128.953 95.1841 128.921 95.233 128.921C95.885 128.872 96.5369 128.823 97.1888 128.774C98.6882 128.676 100.709 128.611 104.213 128.709C106.674 128.774 108.451 128.888 111.123 129.067C112.672 129.165 113.617 129.246 118.148 129.589L123.885 130.029C123.934 130.029 123.966 130.078 123.966 130.11C123.966 130.159 123.934 130.192 123.885 130.192Z" fill="#F9C973"/>
<path d="M105.386 68.8954C106.283 69.531 107.228 70.2644 108.173 71.063C109.526 72.2039 110.716 73.3447 111.742 74.4204C110.748 73.6707 109.64 72.9047 108.434 72.1387C107.358 71.4705 106.332 70.8674 105.337 70.3459C105.37 69.8733 105.386 69.3843 105.386 68.8954Z" fill="#35489E"/>
<path fill-rule="evenodd" clip-rule="evenodd" d="M98.5086 255.653C98.313 255.979 98.1174 256.403 97.987 256.908C97.8566 257.364 97.8077 257.804 97.8077 258.212C97.7914 260.868 100.122 261.406 100.122 261.406C101.442 261.911 127.828 262.025 131.104 260.868C132.05 260.689 133.19 259.76 133.19 258.749C133.109 258.032 132.93 257.446 132.767 256.989L98.5086 255.653Z" fill="#BF2652"/>
<path fill-rule="evenodd" clip-rule="evenodd" d="M113.584 249.395C113.193 248.955 112.41 248.547 111.596 249.134C109.314 250.487 108.906 250.845 107.407 251.122C106.119 251.35 105.093 251.171 104.147 250.992C102.289 250.65 100.888 249.916 100.04 249.395C99.6655 249.932 99.2418 250.666 98.9321 251.562C98.2802 253.404 97.9053 255.849 98.0357 256.794C102.338 258.049 106.185 258.326 108.972 258.717C122.108 259.467 125.889 259.01 128.236 258.684C130.273 258.407 131.919 258.032 132.978 257.772C132.978 257.462 132.962 256.875 132.636 256.256C132.245 255.506 131.675 255.131 131.381 254.936C130.566 254.414 128.643 254.268 127.274 254.023C122.01 254.724 114.236 250.258 113.584 249.395Z" fill="#F95070"/>
<path fill-rule="evenodd" clip-rule="evenodd" d="M127.323 254.023C126.247 253.844 124.895 253.518 123.363 252.931C121.146 252.084 119.598 251.057 118.946 250.601C116.892 249.166 115.425 247.569 114.431 246.282C114.219 246.445 113.877 246.722 113.649 247.194C113.127 248.237 113.535 249.297 113.616 249.476C114.464 250.307 115.654 251.334 117.202 252.312C117.968 252.801 119.63 253.779 121.928 254.577C123.884 255.245 125.661 255.555 127.062 255.685C127.144 255.115 127.225 254.561 127.323 254.023Z" fill="#BF2652"/>
<path fill-rule="evenodd" clip-rule="evenodd" d="M127.307 254.007C127.176 254.496 127.062 255.017 126.964 255.572C126.753 256.826 126.704 257.951 126.72 258.913C127.91 258.815 129.214 258.636 130.615 258.342C131.463 258.163 132.261 257.967 133.011 257.755C133.027 257.544 133.027 257.234 132.929 256.859C132.832 256.647 132.799 254.561 128.676 254.203C128.301 254.154 127.845 254.072 127.307 254.007Z" fill="#FC6C85"/>
<path d="M124.707 256.216C124.76 255.951 124.46 255.667 124.036 255.582C123.613 255.497 123.226 255.643 123.173 255.907C123.12 256.172 123.42 256.456 123.843 256.541C124.267 256.626 124.654 256.481 124.707 256.216Z" fill="white"/>
<path d="M121.098 255.364C121.189 255.11 120.934 254.786 120.527 254.64C120.12 254.494 119.717 254.581 119.626 254.836C119.534 255.09 119.79 255.414 120.197 255.56C120.603 255.706 121.007 255.618 121.098 255.364Z" fill="white"/>
<path d="M117.706 253.931C117.798 253.677 117.542 253.353 117.135 253.207C116.729 253.061 116.325 253.149 116.234 253.403C116.143 253.657 116.398 253.981 116.805 254.127C117.212 254.273 117.615 254.186 117.706 253.931Z" fill="white"/>
<path d="M114.541 251.896C114.685 251.657 114.501 251.283 114.131 251.06C113.76 250.838 113.344 250.851 113.2 251.09C113.056 251.33 113.24 251.704 113.611 251.926C113.981 252.149 114.398 252.135 114.541 251.896Z" fill="white"/>
<path fill-rule="evenodd" clip-rule="evenodd" d="M123.999 256.223H123.983C123.934 256.207 123.917 256.174 123.917 256.125C124.064 255.506 124.26 254.903 124.504 254.316C124.635 254.023 124.781 253.713 124.928 253.42C124.944 253.387 124.993 253.371 125.042 253.387C125.075 253.404 125.091 253.452 125.075 253.501C124.928 253.778 124.781 254.088 124.651 254.381C124.406 254.952 124.211 255.555 124.08 256.158C124.064 256.19 124.032 256.223 123.999 256.223Z" fill="white"/>
<path fill-rule="evenodd" clip-rule="evenodd" d="M120.527 255.05C120.527 255.05 120.511 255.05 120.495 255.05C120.446 255.033 120.43 254.985 120.446 254.952C120.544 254.642 121.147 253.176 121.864 252.263C121.896 252.23 121.945 252.214 121.978 252.247C122.011 252.279 122.027 252.328 121.994 252.361C121.31 253.241 120.69 254.691 120.593 254.985C120.593 255.017 120.56 255.05 120.527 255.05Z" fill="white"/>
<path fill-rule="evenodd" clip-rule="evenodd" d="M117.121 253.844C117.105 253.844 117.089 253.844 117.089 253.827C117.056 253.811 117.04 253.762 117.056 253.713C117.398 253.078 117.806 252.458 118.229 251.888C118.523 251.497 118.833 251.122 119.158 250.763C119.191 250.731 119.24 250.731 119.273 250.763C119.305 250.796 119.305 250.845 119.273 250.878C118.947 251.236 118.637 251.611 118.344 251.986C117.92 252.556 117.529 253.159 117.17 253.795C117.186 253.827 117.154 253.844 117.121 253.844Z" fill="white"/>
<path fill-rule="evenodd" clip-rule="evenodd" d="M114.025 251.66C114.008 251.66 113.992 251.66 113.976 251.643C113.943 251.611 113.927 251.562 113.959 251.529C114.334 250.959 114.742 250.437 115.198 249.932C115.622 249.476 116.062 249.036 116.551 248.645C116.583 248.612 116.632 248.628 116.665 248.661C116.697 248.693 116.681 248.742 116.648 248.775C116.176 249.166 115.72 249.59 115.312 250.046C114.872 250.535 114.465 251.073 114.09 251.627C114.073 251.643 114.057 251.66 114.025 251.66Z" fill="white"/>
<path fill-rule="evenodd" clip-rule="evenodd" d="M114.741 250.649C114.725 250.649 114.709 250.649 114.693 250.633C113.34 249.802 112.02 249.411 110.749 249.443C110.341 249.46 109.983 249.509 109.673 249.557C109.037 249.655 108.499 249.753 107.831 249.443C107.766 249.411 106.364 248.726 106.299 247.341C106.267 246.33 106.935 245.564 107.538 245.206C108.565 244.603 109.689 244.978 110.227 245.173C111.449 245.597 112.134 246.412 112.884 247.292C113.682 248.254 114.334 249.329 114.807 250.535C114.823 250.568 114.807 250.601 114.79 250.633C114.79 250.633 114.758 250.649 114.741 250.649ZM110.944 249.28C112.118 249.28 113.34 249.639 114.579 250.372C114.122 249.28 113.519 248.286 112.786 247.406C112.069 246.542 111.384 245.744 110.211 245.336C109.689 245.157 108.613 244.782 107.652 245.369C107.098 245.695 106.462 246.412 106.495 247.357C106.544 248.645 107.864 249.297 107.929 249.313C108.532 249.606 109.037 249.525 109.673 249.427C109.999 249.378 110.357 249.313 110.765 249.297C110.814 249.28 110.879 249.28 110.944 249.28Z" fill="white"/>
<path fill-rule="evenodd" clip-rule="evenodd" d="M114.692 250.649C114.676 250.649 114.643 250.633 114.627 250.617C113.796 249.59 112.948 248.547 112.117 247.488C111.042 246.119 110.602 245.515 110.602 244.652C110.602 244.424 110.65 243.266 111.579 242.549C112.606 241.767 113.877 242.158 114.106 242.24C115.067 242.582 115.54 243.315 115.703 243.576C116.746 245.206 116.175 247.21 115.898 248.172C115.654 249.036 115.263 249.851 114.758 250.6C114.758 250.633 114.725 250.633 114.692 250.649ZM113.079 242.24C112.639 242.24 112.134 242.337 111.677 242.68C110.797 243.348 110.765 244.44 110.765 244.652C110.765 245.45 111.139 245.972 112.248 247.373C113.046 248.4 113.877 249.427 114.692 250.421C115.165 249.704 115.524 248.938 115.752 248.123C116.029 247.178 116.583 245.222 115.572 243.658C115.426 243.429 114.969 242.712 114.057 242.386C113.943 242.354 113.551 242.24 113.079 242.24Z" fill="white"/>
<path fill-rule="evenodd" clip-rule="evenodd" d="M114.693 250.698C114.644 250.698 114.611 250.666 114.611 250.617C114.513 249.443 114.709 248.335 115.182 247.406C116.616 244.619 120.234 243.609 122.711 244.407C123.331 244.603 123.901 244.913 124.422 245.336C124.455 245.369 124.471 245.418 124.439 245.451C124.406 245.483 124.357 245.499 124.325 245.467C123.819 245.059 123.249 244.766 122.662 244.57C120.25 243.788 116.73 244.782 115.328 247.488C114.856 248.4 114.66 249.476 114.774 250.601C114.774 250.65 114.742 250.682 114.693 250.698Z" fill="white"/>
<path fill-rule="evenodd" clip-rule="evenodd" d="M114.709 250.601C114.677 250.601 114.644 250.584 114.628 250.552C114.269 249.46 114.155 248.351 114.253 247.259C114.628 243.544 117.561 241.327 118.458 240.74C118.49 240.708 118.539 240.724 118.572 240.757C118.604 240.789 118.588 240.838 118.555 240.871C117.675 241.457 114.791 243.641 114.416 247.276C114.302 248.351 114.432 249.427 114.774 250.503C114.791 250.552 114.758 250.584 114.725 250.601C114.725 250.584 114.709 250.601 114.709 250.601Z" fill="white"/>
<path d="M97.6616 57.8289C97.6616 58.5786 97.5964 59.4098 97.4497 60.2899C96.9118 63.5168 95.4287 65.7497 94.3042 67.2491C95.445 68.3247 96.5207 69.3189 97.303 69.8893C97.303 69.8893 99.6988 71.7147 102.29 72.5622C104.099 73.0348 105.436 72.6274 105.648 71.6658C105.648 71.3072 105.533 70.802 105.615 69.7589C105.615 69.1396 106.462 65.9452 108.109 64.7718C113.454 59.9965 100.237 53.2655 99.0469 52.9884C98.3298 53.6892 97.7756 54.993 97.6616 57.8289Z" fill="#F38484"/>
<path d="M99.1774 59.9476C99.8619 61.7893 102.649 64.7881 106.74 66.4342C107.049 65.8312 107.506 65.1956 108.109 64.7555C113.454 59.9802 99.7152 52.3365 98.5254 52.0594C98.1506 55.2049 98.5091 58.2527 99.1774 59.9476Z" fill="#828282" fill-opacity="0.3"/>
<path fill-rule="evenodd" clip-rule="evenodd" d="M145.773 82.2434C144.6 81.9826 142.236 81.4611 142.236 81.4611L149 56.2809C149.244 55.3845 149.847 54.6185 150.662 54.1621C151.526 53.6895 152.634 53.0702 153.303 52.6953C150.776 62.5392 148.283 72.3832 145.773 82.2434Z" fill="#A2E9FC"/>
<path fill-rule="evenodd" clip-rule="evenodd" d="M117.137 85.5845L122.157 83.9059C122.287 83.857 122.418 83.8407 122.548 83.8244L142.236 81.4612L145.137 82.0642L117.137 85.5845Z" fill="#A2E9FC"/>
<path fill-rule="evenodd" clip-rule="evenodd" d="M145.105 82.0642L117.252 85.5682C116.795 85.6334 116.486 86.0408 116.534 86.4972V86.5298C116.6 86.9861 117.007 87.2958 117.463 87.2469L145.317 83.7428C145.773 83.6776 146.083 83.2702 146.034 82.8139V82.7813C145.968 82.3249 145.561 82.0153 145.105 82.0642Z" fill="#0A9CE5"/>
<path fill-rule="evenodd" clip-rule="evenodd" d="M152.585 53.3308L145.447 81.4283C145.333 81.8847 145.61 82.341 146.05 82.4551C146.506 82.5692 146.962 82.2921 147.077 81.8521L154.215 53.7545C154.329 53.2982 154.052 52.8418 153.612 52.7277C153.156 52.5973 152.699 52.8744 152.585 53.3308Z" fill="#0A9CE5"/>
<path d="M111.221 61.8219C111.335 62.0012 111.515 62.2619 111.792 62.4901C112.199 62.8324 112.623 62.979 112.868 63.0442C112.835 63.1257 112.753 63.631 112.688 63.9732C112.46 63.8428 112.118 63.7613 111.824 63.4191C111.335 62.7835 111.238 62.1153 111.221 61.8219Z" fill="#F38484"/>
<path d="M95.1351 41.3844C94.8092 40.8466 94.092 40.3088 93.2934 40.2273C91.8429 40.0969 90.8488 41.0422 90.6858 41.2051C90.0339 41.6941 89.0886 42.3786 87.8662 43.0468C86.432 43.8454 79.1143 47.6917 71.275 45.6545C64.2343 43.8128 58.6441 37.6848 56.5254 29.9433C57.3566 30.7093 58.6441 31.7361 60.4206 32.551C62.0341 33.2844 63.4846 33.594 64.544 33.7407C63.615 32.7954 62.6045 31.5568 61.7244 29.9433C59.2471 25.3962 59.5079 20.9143 59.7687 18.8933C60.225 20.4253 61.2029 22.9352 63.3379 25.3962C66.3693 28.8676 69.9549 30.2204 71.5683 30.7093C71.2261 30.2366 70.8023 29.5521 70.4764 28.6558C70.0526 27.4497 70.02 26.4066 70.0363 25.7221C70.5253 26.537 71.3565 27.6779 72.644 28.7535C74.6975 30.4648 76.7837 31.0189 78.495 31.459C79.8966 31.8175 81.9827 32.2087 84.5578 32.1109C85.2749 32.0946 86.2854 32.0946 87.4914 32.225C89.0397 32.388 91.5659 32.551 94.1409 33.8874C96.6019 35.1586 98.5414 36.821 99.6333 38.516C98.2806 39.3635 96.5367 40.5043 95.1351 41.3844Z" fill="#353437"/>
<path fill-rule="evenodd" clip-rule="evenodd" d="M95.3469 43.4055C95.2003 43.1448 94.7765 42.3136 94.9884 41.3031C95.2003 40.3415 95.8848 39.8037 96.3574 39.4288C97.7264 38.3695 99.3073 38.3369 99.9755 38.3858C100.155 38.4184 100.448 38.4836 100.774 38.6791C101.051 38.8584 101.247 39.054 101.345 39.2007C100.562 39.4451 99.617 39.8363 98.6065 40.4719C97.0582 41.4498 95.9989 42.5743 95.3469 43.4055Z" fill="#FFF9B0"/>
<path d="M115.719 47.3494C115.866 46.7953 116.012 45.8826 115.784 44.8233C115.409 43.0631 114.22 41.9874 113.47 41.3518C110.944 39.1679 107.049 38.1737 103.349 38.7441C102.322 38.9071 98.8997 39.4938 96.1942 42.3623C95.6075 42.9816 94.3037 44.3995 93.6681 46.6975C93.5703 47.0724 92.3968 52.3692 95.4771 55.8732C96.5202 57.5193 95.9824 58.3831 97.547 59.6381C97.824 59.198 99.2745 58.1712 99.1115 54.8139C100.35 54.276 101.214 53.0048 102.469 52.4833C106.983 50.609 111.4 48.914 115.719 47.3494Z" fill="#353437"/>
<path d="M115.296 45.5405C115.638 46.991 115.882 48.246 116.062 49.2239C116.437 51.2611 116.453 51.9293 116.274 52.6953C116.078 53.5102 115.703 54.1458 115.361 54.6185C115.182 54.8466 115.133 55.1563 115.231 55.4171C115.508 56.2482 115.785 57.0957 116.062 57.9269C116.176 58.2692 115.997 58.6277 115.671 58.7581C115.296 58.9048 114.921 59.0352 114.53 59.1819C114.432 59.5404 114.432 59.573 114.334 59.9316C114.53 60.8932 113.976 61.1376 113.976 61.1376C113.731 61.268 113.617 61.5451 113.699 61.8058C113.796 62.0829 113.584 62.4903 113.112 62.7837C113.047 62.8326 112.933 62.8815 112.867 63.0282C112.786 63.3867 112.704 63.7779 112.704 63.9572C112.639 64.3157 112.607 64.4787 112.476 64.935C112.215 66.1574 110.797 65.8803 110.667 65.8803C107.636 65.3099 103.252 61.7569 103.252 61.7569C103.252 61.7569 101.182 60.0294 101.051 58.6766C100.954 57.764 100.856 56.8513 100.774 55.9386C100.465 55.9223 99.9757 55.8408 99.5519 55.4985C99.0304 55.1074 98.8022 54.537 98.6067 53.6895C98.4111 52.8257 98.134 51.2448 98.3459 50.2995C98.4926 49.4031 100.122 48.3112 101.491 50.5114C101.915 50.218 102.583 49.8269 103.447 49.5009C105.11 48.8653 105.876 49.1098 108.369 48.7838C110.439 48.5067 111.743 48.3275 113.144 47.48C114.187 46.8607 114.872 46.0784 115.296 45.5405Z" fill="#F7B2B2"/>
<path d="M112.032 53.3019C112.109 52.8769 111.907 52.4838 111.579 52.424C111.251 52.3641 110.923 52.6602 110.845 53.0852C110.767 53.5102 110.97 53.9033 111.298 53.9631C111.625 54.0229 111.954 53.7269 112.032 53.3019Z" fill="#353437"/>
<path d="M115.661 54.5334C115.785 54.1956 115.715 53.8586 115.504 53.7807C115.292 53.7028 115.02 53.9135 114.895 54.2513C114.771 54.5892 114.841 54.9262 115.053 55.0041C115.264 55.082 115.536 54.8712 115.661 54.5334Z" fill="#353437"/>
<path d="M112.378 53.5427C112.297 53.5427 112.231 53.4776 112.215 53.3961C112.183 53.1842 112.117 53.0212 112.003 52.8908C111.791 52.6301 111.498 52.6138 111.042 52.5975C110.634 52.5812 110.243 52.6464 109.852 52.793C109.77 52.8256 109.673 52.7768 109.64 52.6953C109.607 52.6138 109.656 52.516 109.738 52.4834C110.162 52.3204 110.618 52.2389 111.058 52.2552C111.498 52.2715 111.954 52.2878 112.264 52.679C112.411 52.8582 112.492 53.0864 112.541 53.3472C112.557 53.4287 112.492 53.5265 112.411 53.5265C112.394 53.5427 112.394 53.5427 112.378 53.5427Z" fill="#353437"/>
<path d="M115.263 55.6613C115.231 55.6613 115.198 55.645 115.182 55.6124L114.709 54.2108C114.693 54.1619 114.725 54.1293 114.758 54.113C114.807 54.0967 114.839 54.1293 114.856 54.1619L115.328 55.5635C115.345 55.6124 115.312 55.645 115.279 55.6613H115.263Z" fill="#F38484"/>
<path d="M112.818 51.7011L112.607 51.424C112.427 51.1795 112.134 51.0329 111.824 51.0166C111.482 51.0003 111.091 51.0166 110.651 51.0817C110.211 51.1469 109.754 51.2121 109.396 51.3099C109.282 51.3425 109.217 51.1958 109.314 51.1306C109.64 50.9188 110.08 50.6743 110.586 50.4787C111.205 50.2343 111.775 50.1691 112.199 50.1691C112.574 50.1691 112.9 50.3809 113.03 50.7232C113.063 50.7884 113.079 50.8699 113.095 50.9514C113.161 51.1958 113.161 51.4077 113.144 51.587C113.161 51.7663 112.932 51.8478 112.818 51.7011Z" fill="#353437"/>
<path d="M113.976 59.3284C113.487 59.3284 113.063 59.0839 112.9 58.6928C112.802 58.432 112.851 58.1875 112.916 58.0409C112.949 57.9594 113.047 57.9105 113.128 57.9431C113.21 57.9757 113.259 58.0735 113.226 58.1549C113.193 58.269 113.161 58.432 113.21 58.595C113.324 58.8883 113.682 59.0676 114.09 59.0187C114.188 59.0024 114.253 59.0676 114.269 59.1654C114.285 59.2469 114.22 59.3284 114.122 59.3447C114.073 59.3284 114.025 59.3284 113.976 59.3284Z" fill="#828282" fill-opacity="0.3"/>
<path d="M115.964 54.2435C115.899 54.2435 115.85 54.2109 115.817 54.1457C115.768 54.0479 115.687 53.9664 115.557 53.9338C115.328 53.8686 115.051 53.9338 114.986 53.9664C114.937 54.0153 114.872 54.0316 114.823 54.0153C114.742 53.9827 114.693 53.9012 114.709 53.8035C114.758 53.6242 115.133 53.5916 115.231 53.5753C115.654 53.5427 115.98 53.7057 116.111 53.999C116.143 54.0805 116.111 54.1783 116.029 54.2109C116.013 54.2272 115.997 54.2435 115.964 54.2435Z" fill="#353437"/>
<path d="M115.377 52.0922C115.247 52.2389 115.345 52.4834 115.556 52.4834C115.605 52.4834 115.67 52.4834 115.719 52.4834C115.996 52.4997 116.192 52.5812 116.322 52.6464C116.388 52.5649 116.551 52.3367 116.534 51.9944C116.534 51.7663 116.453 51.587 116.404 51.5055C116.241 51.5381 116.045 51.6033 115.833 51.7174C115.654 51.8315 115.491 51.9618 115.377 52.0922Z" fill="#353437"/>
<path d="M100.008 54.5367C99.7311 54.5204 99.4378 54.2108 99.2911 53.9337C99.2911 53.9174 98.5414 52.2876 98.8836 50.9838C98.9651 50.6904 99.3563 49.8592 100.073 50.0222C100.171 50.0385 100.367 50.0874 100.562 50.2667C100.595 50.2993 100.595 50.3482 100.579 50.3807C100.546 50.4133 100.497 50.4133 100.465 50.397C100.302 50.2504 100.139 50.2178 100.057 50.2015C99.4541 50.0711 99.1281 50.7882 99.0466 51.049C98.7207 52.2713 99.4215 53.8685 99.4378 53.8848C99.5518 54.1293 99.7963 54.39 100.008 54.4063C100.057 54.4063 100.09 54.4552 100.09 54.4878C100.09 54.5041 100.041 54.5367 100.008 54.5367Z" fill="#F38484"/>
<path d="M100.562 52.8093C100.334 52.8093 100.057 52.6789 99.9757 52.4344C99.9105 52.2551 99.9105 51.9618 100.302 51.5543C100.676 51.1795 100.676 50.8372 100.628 50.6579C100.611 50.609 100.644 50.5764 100.693 50.5601C100.742 50.5438 100.774 50.5764 100.791 50.6253C100.839 50.8372 100.856 51.2447 100.416 51.6684C100.155 51.9455 100.041 52.1899 100.122 52.3692C100.188 52.5322 100.399 52.63 100.562 52.63C100.611 52.63 100.644 52.6626 100.644 52.7115C100.644 52.7767 100.611 52.8093 100.562 52.8093Z" fill="#F38484"/>
<path d="M107.945 64.8533C105.533 63.6147 103.252 61.773 103.252 61.773C103.252 61.773 101.182 60.0455 101.051 58.6927C100.954 57.78 100.856 56.8674 100.774 55.9547C100.921 55.9547 101.443 55.9384 101.899 55.7102C102.127 55.5961 102.388 55.7265 102.42 55.9873C102.828 58.3505 102.535 60.3225 107.945 64.8533Z" fill="#F38484"/>
<path d="M94.4505 66.3202C93.6356 67.347 91.3376 69.0582 90.376 69.7102C87.5891 71.5681 86.9861 72.1059 86.4808 72.7416C85.2422 74.2736 84.8673 75.8545 84.6392 76.8649C83.4168 82.064 85.8778 87.3445 86.5949 88.795C87.2957 90.001 88.1595 91.8101 88.7625 94.1081C88.9907 94.9719 89.8871 98.6715 89.0885 103.642C88.4366 107.701 87.0024 110.39 84.4273 115.246C81.7218 120.331 81.1677 120.087 79.3261 124.129C77.9733 127.111 76.5554 130.306 76.2946 134.641C76.0991 137.835 76.588 140.492 77.0606 142.236C77.8918 142.741 79.0653 143.328 80.5321 143.751C81.787 144.11 82.8953 144.257 83.7917 144.289C83.5472 142.627 83.3679 140.15 83.9058 137.249C84.3295 134.967 85.1607 132.522 88.7788 126.622C92.4622 120.625 93.2282 120.478 95.4936 116.534C98.0849 112.036 99.3236 108.352 100.481 104.93C103.023 97.3677 104.425 93.2117 104.05 87.3771C103.626 81.2654 101.866 71.5844 94.4505 66.3202Z" fill="#35489E"/>
<path d="M96.3902 67.9011C99.2097 70.5088 104.148 76.5227 104.083 90.2292C103.268 96.5202 101.703 101.589 101.263 102.795C99.0956 109.673 96.3902 114.921 95.7709 116.013C95.0375 117.3 93.7825 119.158 91.2889 122.874C89.8873 124.944 88.7139 126.671 87.899 127.861C89.0235 125.612 99.226 107.847 101.361 89.1699C101.948 84.1664 101.165 75.3819 96.3902 67.9011Z" fill="#213B8E"/>
<path d="M83.7756 144.241C83.743 144.241 83.7104 144.208 83.6941 144.175C83.5474 143.409 83.4659 142.611 83.417 141.829C83.3681 140.851 83.4007 138.813 84.0689 136.222C84.5905 134.217 85.2587 132.8 85.9106 131.431C87.0026 129.165 88.0293 127.584 89.5939 125.188C90.1481 124.341 90.474 123.868 90.8815 123.282C91.3215 122.646 91.8756 121.847 92.9513 120.25C94.1736 118.408 94.793 117.496 95.233 116.779C96.7487 114.253 97.6125 112.232 98.3785 110.455C99.3075 108.271 100.22 105.729 101.084 102.925C102.909 97.0256 103.822 94.0594 104.001 90.262C104.083 88.6811 104.083 85.4215 103.252 81.4448C102.844 79.5217 102.176 76.2947 100.171 72.8558C99.3238 71.389 98.4763 70.2808 97.9059 69.6126C96.8302 68.325 95.7382 67.282 94.5811 66.3856C94.5485 66.353 94.5322 66.3041 94.5648 66.2715C94.5974 66.2389 94.6463 66.2226 94.6789 66.2552C95.8523 67.1516 96.9443 68.2109 98.0362 69.4985C98.6067 70.1667 99.4705 71.2912 100.318 72.7581C102.323 76.2132 103.007 79.4565 103.415 81.3959C104.262 85.3889 104.246 88.6648 104.181 90.2457C104.001 94.0594 103.072 97.0256 101.247 102.942C100.383 105.745 99.4705 108.287 98.5415 110.488C97.7755 112.28 96.9117 114.318 95.396 116.844C94.9722 117.561 94.3529 118.474 93.1143 120.315C92.0549 121.913 91.4845 122.711 91.0444 123.347C90.637 123.933 90.311 124.406 89.7569 125.254C88.1923 127.633 87.1492 129.214 86.0736 131.479C85.4217 132.832 84.7535 134.25 84.2319 136.238C83.5637 138.813 83.5311 140.834 83.58 141.796C83.6126 142.578 83.7104 143.361 83.8571 144.11C83.8571 144.192 83.8245 144.224 83.7756 144.241Z" fill="#828282" fill-opacity="0.3"/>
<path d="M130.632 68.178C130.535 68.178 130.421 68.1617 130.323 68.0965C130.225 68.0313 130.16 67.9335 130.111 67.8032C130.095 67.7543 130.127 67.7217 130.16 67.7054C130.209 67.6891 130.241 67.7217 130.258 67.7543C130.29 67.8521 130.339 67.9173 130.404 67.9661C130.518 68.0476 130.649 68.0313 130.812 68.015C131.121 67.9661 131.447 67.901 131.757 67.8195C131.806 67.8032 131.838 67.8358 131.855 67.8847C131.871 67.9335 131.838 67.9661 131.79 67.9824C131.464 68.0639 131.138 68.1291 130.828 68.178C130.779 68.178 130.698 68.178 130.632 68.178Z" fill="#F38484"/>
<path d="M124.83 72.8555C125.287 72.8392 125.743 72.8066 126.199 72.7903C126.525 72.774 126.835 72.9207 126.998 73.1814C127.194 73.5237 127.112 74.0126 126.737 74.306C126.509 74.3875 126.281 74.469 126.053 74.5668C126.036 74.469 126.004 74.306 125.906 74.1267C125.759 73.8497 125.596 73.7193 125.287 73.4096C125.189 73.2792 125.026 73.1 124.83 72.8555Z" fill="#F38484"/>
<path d="M108.858 88.1266C109.591 84.0032 110.325 79.8962 111.058 75.7728C111.172 75.1046 111.58 74.5179 112.15 74.1593C114.872 72.4969 117.577 70.8345 120.299 69.1559C120.625 68.9603 120.967 68.8462 121.342 68.8136C121.831 68.7647 122.418 68.7158 123.086 68.6506C127.144 68.2595 128.155 68.1291 129.23 67.9335C129.785 67.8357 130.583 67.6727 131.561 67.4283C131.74 67.3794 131.92 67.4772 131.985 67.6402C132.066 67.8357 132.115 68.0639 132.05 68.2921C131.854 69.0418 130.632 69.3188 130.029 69.4492C128.253 69.8404 126.02 70.3945 123.233 71.1116C124.08 72.0569 124.911 72.9859 125.759 73.9311C125.792 73.98 126.052 74.2571 126.02 74.6971C125.971 75.0883 125.71 75.3002 125.661 75.3491L124.977 75.7891C124.928 75.8869 124.846 76.0336 124.716 76.2291C124.488 76.5551 124.08 77.1581 123.526 77.2396C123.526 77.2396 123.526 77.2396 123.054 77.2722C123.054 77.2722 122.548 77.696 122.222 77.9567C122.125 77.9893 121.896 78.0708 121.603 78.0219C121.244 77.9567 121.016 77.7286 120.951 77.6634C120.446 77.2396 119.941 76.8159 119.435 76.3921L117.3 78.0871C117.17 78.1686 116.958 78.2827 116.681 78.3479C116.518 78.3805 116.355 78.3805 116.208 78.3805C115.948 78.3642 115.736 78.5597 115.736 78.8205C115.736 79.9777 115.752 81.1511 115.768 82.3246C115.801 85.0137 115.85 87.7029 115.915 90.3431C115.1 90.3431 114.106 90.2616 113.03 90.0172C111.319 89.6423 109.95 89.0067 108.972 88.4526C108.94 88.3385 108.907 88.257 108.858 88.1266Z" fill="#F7B2B2"/>
<path d="M124.912 75.9684C124.895 75.9684 124.879 75.9684 124.863 75.9521C124.83 75.9358 124.814 75.8706 124.83 75.838C124.895 75.7402 124.961 75.5936 124.961 75.4143C124.961 75.1046 124.781 74.909 124.7 74.8276L121.636 71.7635C121.603 71.7309 121.603 71.682 121.636 71.6494C121.668 71.6169 121.717 71.6169 121.75 71.6494L124.83 74.7298C124.928 74.8113 125.14 75.072 125.14 75.4306C125.14 75.6588 125.058 75.838 124.993 75.9521C124.96 75.9521 124.944 75.9684 124.912 75.9684Z" fill="#F38484"/>
<path d="M123.005 77.3047C122.988 77.3047 122.956 77.2884 122.939 77.2721C122.907 77.2395 122.907 77.1906 122.939 77.158C123.053 77.0602 123.575 76.555 123.445 75.9357C123.412 75.8053 123.363 75.6586 123.265 75.5445L120.495 72.7739C120.462 72.7413 120.462 72.6924 120.495 72.6598C120.527 72.6272 120.576 72.6272 120.609 72.6598L123.379 75.4468C123.493 75.5934 123.559 75.7564 123.591 75.9031C123.738 76.6039 123.151 77.1743 123.037 77.2884C123.037 77.3047 123.021 77.3047 123.005 77.3047Z" fill="#F38484"/>
<path d="M122.01 76.767C121.994 76.767 121.978 76.767 121.962 76.7507L121.098 75.9847C121.016 75.9032 120.837 75.7566 120.592 75.7077C120.315 75.6751 120.087 75.8055 119.957 75.8706C119.712 76.0173 119.566 76.2292 119.484 76.3759C119.468 76.4085 119.419 76.4248 119.37 76.4085C119.338 76.3922 119.321 76.3433 119.338 76.2944C119.419 76.1314 119.598 75.8869 119.875 75.724C120.022 75.6425 120.267 75.4795 120.609 75.5284C120.902 75.5773 121.098 75.7403 121.196 75.8381L122.059 76.5878C122.092 76.6204 122.092 76.6693 122.059 76.7019C122.059 76.7507 122.043 76.767 122.01 76.767Z" fill="#F38484"/>
<path d="M113.633 61.5774H113.617C112.949 61.4959 112.33 61.2677 111.792 60.9255C111.547 60.7788 111.319 60.5832 111.107 60.3877C111.042 60.3225 111.042 60.2247 111.107 60.1595C111.172 60.0943 111.27 60.0943 111.335 60.1595C111.531 60.3388 111.743 60.518 111.971 60.6647C112.476 60.9907 113.047 61.1863 113.666 61.2677C113.747 61.284 113.813 61.3655 113.813 61.447C113.78 61.5122 113.715 61.5774 113.633 61.5774Z" fill="#828282" fill-opacity="0.3"/>
<path d="M115.931 89.6588C115.883 89.6588 115.85 89.6262 115.85 89.5773C115.801 87.1652 115.752 84.7206 115.72 82.3248C115.703 81.1513 115.687 79.9779 115.687 78.8207C115.687 78.674 115.752 78.5273 115.85 78.4296C115.964 78.3318 116.094 78.2829 116.241 78.2992C116.388 78.3155 116.534 78.2992 116.681 78.2666C116.893 78.2177 117.089 78.1362 117.268 78.0221L119.387 76.3271C119.419 76.3108 119.452 76.3108 119.484 76.3271L121 77.5984C121.098 77.7125 121.293 77.8917 121.619 77.9406C121.848 77.9732 122.043 77.9243 122.173 77.8754L122.988 77.1909C123.005 77.1746 123.021 77.1746 123.037 77.1746C123.477 77.142 123.51 77.142 123.51 77.142C124.031 77.0768 124.423 76.4901 124.634 76.1642C124.732 76.0338 124.814 75.8871 124.879 75.7404C124.879 75.7241 124.895 75.7078 124.912 75.7078L125.596 75.2678C125.661 75.2189 125.889 75.0233 125.922 74.681C125.971 74.3062 125.743 74.0291 125.694 73.9802L123.168 71.1607C123.151 71.1444 123.135 71.1118 123.151 71.0792C123.168 71.0466 123.184 71.0303 123.217 71.0303C125.987 70.3295 128.22 69.7754 130.013 69.3679H130.029C130.599 69.2375 131.789 68.9768 131.969 68.276C132.017 68.0967 132.001 67.8848 131.903 67.6729C131.854 67.5426 131.708 67.4774 131.577 67.51C130.811 67.7055 130.013 67.8685 129.247 68.0152C128.204 68.2108 127.258 68.3412 123.102 68.7323C122.434 68.7975 121.831 68.8464 121.359 68.8953C121 68.9279 120.658 69.042 120.348 69.2375L119.305 69.8895C119.272 69.9058 119.224 69.9058 119.191 69.8569C119.175 69.8243 119.175 69.7754 119.224 69.7428L120.267 69.0909C120.593 68.8953 120.967 68.7649 121.342 68.7323C121.831 68.6834 122.418 68.6345 123.086 68.5693C127.242 68.1782 128.187 68.0315 129.214 67.8522C129.98 67.7055 130.762 67.5426 131.528 67.347C131.74 67.2981 131.969 67.4122 132.05 67.6078C132.148 67.8522 132.18 68.0967 132.115 68.3086C131.903 69.1072 130.697 69.3679 130.045 69.5146H130.029C128.253 69.9058 126.085 70.4599 123.363 71.1444L125.808 73.8661C125.889 73.9476 126.134 74.2573 126.085 74.681C126.036 75.0885 125.775 75.3167 125.694 75.3819L125.026 75.8056C124.96 75.9523 124.863 76.099 124.781 76.2293C124.553 76.5716 124.129 77.1909 123.526 77.2724C123.526 77.2724 123.526 77.2724 123.07 77.305L122.255 77.9732L122.239 77.9895C122.092 78.0547 121.864 78.1199 121.587 78.071C121.228 78.0058 121 77.8102 120.886 77.6799L119.435 76.4738L117.349 78.1362C117.137 78.2666 116.926 78.3644 116.697 78.4133C116.534 78.4459 116.371 78.4622 116.208 78.4459C116.111 78.4459 116.013 78.4785 115.948 78.5436C115.866 78.6088 115.834 78.7066 115.834 78.8044C115.834 79.9616 115.85 81.135 115.866 82.3085C115.899 84.7206 115.931 87.1489 115.997 89.561C116.013 89.6262 115.98 89.6588 115.931 89.6588Z" fill="#F38484"/>
<path d="M110.309 80.0593C110.309 80.0593 110.292 80.0593 110.309 80.0593C110.243 80.043 110.227 80.0104 110.227 79.9615L110.977 75.773C111.107 75.0721 111.466 74.5343 112.053 74.1758C112.085 74.1595 112.134 74.1595 112.167 74.2084C112.183 74.241 112.183 74.2898 112.134 74.3224C111.596 74.6647 111.254 75.1536 111.14 75.8218L110.39 79.9941C110.39 80.043 110.341 80.0593 110.309 80.0593Z" fill="#F38484"/>
<path d="M89.2845 73.2142C88.8444 73.3935 87.785 73.915 86.905 75.1211C86.3671 75.8708 85.5033 77.3865 85.6011 80.5972C85.7478 85.6169 88.0458 89.6099 88.6325 90.6041C94.3205 100.171 103.545 109.673 105.142 110.96C105.713 111.596 110.341 113.812 112.802 110.243C114.758 106.983 116.225 97.6937 116.453 89.1373C114.465 88.5179 110.667 87.5401 108.695 87.1326C108.451 88.5831 106.951 95.9172 106.951 98.1011C106.544 97.0417 105.664 94.8089 104.572 92.022C104.572 92.022 101.801 84.965 97.629 77.142C97.1889 76.3271 96.537 75.1211 95.2495 74.1595C94.8583 73.8987 92.1855 71.9919 89.2845 73.2142Z" fill="#5067BC"/>
<path d="M103.838 72.8232C103.61 72.8232 103.333 72.8069 103.007 72.758C102.421 72.6602 101.769 72.4809 101.149 72.2039C100.677 72.0083 100.204 71.7638 99.764 71.4705C99.7314 71.4542 99.7151 71.389 99.7314 71.3564C99.7477 71.3238 99.8129 71.3075 99.8455 71.3238C100.269 71.6008 100.742 71.8453 101.198 72.0409C101.818 72.3017 102.437 72.4809 103.024 72.5787C103.887 72.7091 104.344 72.6276 104.621 72.5461C104.865 72.4646 105.044 72.3668 105.207 72.2365C105.37 72.0898 105.501 71.9105 105.582 71.6823C105.599 71.6334 105.648 71.6171 105.68 71.6334C105.729 71.6497 105.745 71.6986 105.729 71.7312C105.631 71.9757 105.485 72.1713 105.305 72.3342C105.126 72.4809 104.93 72.595 104.653 72.6765C104.474 72.758 104.23 72.8232 103.838 72.8232Z" fill="#F9C973"/>
<path fill-rule="evenodd" clip-rule="evenodd" d="M75.8873 237.008C75.4636 237.188 74.8932 237.367 74.1924 237.448H74.1761C73.1004 237.579 72.1225 236.813 71.9107 235.688C71.8455 235.297 71.764 234.857 71.6988 234.401C71.5358 233.292 71.0632 229.788 71.5358 223.432C72.041 216.522 73.2797 211.355 73.7197 209.611C74.3228 207.232 74.9747 205.146 75.5451 203.467C75.871 202.506 76.8 201.886 77.7616 201.984C77.7942 201.984 77.8431 202 77.8757 202C78.9513 202.131 79.7499 202.538 80.2226 202.831C78.821 207.313 77.4519 212.822 76.6045 219.195C75.7081 226.04 75.6429 232.086 75.8873 237.008Z" fill="#BF2652"/>
<path fill-rule="evenodd" clip-rule="evenodd" d="M87.2957 213.702C87.8498 213.441 88.2084 212.708 87.752 211.909C85.8289 209.497 85.2421 208.308 85.3562 207.525C85.5029 206.384 85.8778 205.488 86.1548 204.95C85.6496 204.51 84.9488 204.021 84.0687 203.614C82.4552 202.864 80.9721 202.75 80.0594 202.766C79.6357 203.94 79.0163 205.749 78.3644 207.965C76.9791 212.708 75.0071 219.618 75.056 228.289C75.0723 230.375 75.2026 233.357 75.7731 236.959C76.0175 237.041 76.4413 237.139 76.9139 236.976C77.1095 236.91 77.5984 236.715 78.2503 235.623C78.5111 235.183 78.6415 234.873 79.1141 233.602C79.5705 232.38 79.8149 231.744 80.1409 230.815C80.3691 230.179 80.5484 229.642 80.6787 229.267C80.5809 228.794 80.5321 228.338 80.4995 227.881C80.092 221.509 85.0955 215.56 87.2957 213.702Z" fill="#F95070"/>
<path fill-rule="evenodd" clip-rule="evenodd" d="M90.5227 216.082C90.5227 215.853 90.5064 215.495 90.3434 215.087C90.0827 214.468 89.6263 214.142 89.3981 213.996C89.2352 213.881 88.6973 213.539 87.9802 213.555C87.7195 213.555 87.0675 213.621 86.0245 214.501C81.9989 218.477 79.489 225.812 78.723 228.24C79.049 228.354 79.4727 228.566 79.9128 228.892C80.2224 229.12 80.418 229.397 80.6136 229.609C80.8743 228.81 81.3144 227.735 81.8522 226.561C83.0094 224.068 84.3132 222.259 85.0955 221.248C86.9535 218.852 88.9418 217.19 90.5227 216.082Z" fill="#BF2652"/>
<path fill-rule="evenodd" clip-rule="evenodd" d="M80.6303 229.495C80.3695 229.218 80.0762 228.957 79.7339 228.696C78.0226 227.409 76.181 227.132 75.0564 227.066C75.0075 228.24 75.0075 229.511 75.0727 230.848C75.1868 233.146 75.4475 235.232 75.7898 237.073C75.9691 237.122 76.3113 237.204 76.7025 237.106C77.2403 236.992 77.5663 236.65 77.7781 236.454C78.2182 235.998 78.3975 235.541 78.6093 235.003C79.2287 233.439 79.5383 232.657 79.5057 232.705C79.7502 231.988 80.125 230.896 80.6303 229.495Z" fill="#FC6C85"/>
<path d="M78.7421 225.857C78.8947 225.452 78.8137 225.047 78.5611 224.952C78.3084 224.857 77.9799 225.107 77.8273 225.511C77.6746 225.915 77.7557 226.32 78.0083 226.416C78.2609 226.511 78.5894 226.261 78.7421 225.857Z" fill="white"/>
<path d="M80.1996 221.958C80.3522 221.553 80.2712 221.148 80.0185 221.053C79.7659 220.958 79.4374 221.208 79.2848 221.612C79.1321 222.016 79.2132 222.421 79.4658 222.517C79.7184 222.612 80.0469 222.362 80.1996 221.958Z" fill="white"/>
<path d="M81.9343 218.414C82.1492 218.009 82.117 217.57 81.8624 217.436C81.6079 217.301 81.2274 217.52 81.0126 217.926C80.7977 218.332 80.8299 218.77 81.0844 218.905C81.339 219.04 81.7195 218.82 81.9343 218.414Z" fill="white"/>
<path d="M84.3785 214.926C84.6731 214.517 84.7047 214.036 84.4491 213.852C84.1934 213.668 83.7474 213.85 83.4528 214.259C83.1583 214.668 83.1267 215.149 83.3823 215.333C83.6379 215.517 84.0839 215.335 84.3785 214.926Z" fill="white"/>
<path fill-rule="evenodd" clip-rule="evenodd" d="M81.2004 228.011C81.1841 228.011 81.1515 227.995 81.1352 227.979C80.8092 227.588 80.467 227.229 80.0758 226.903C79.5217 226.447 78.9187 226.072 78.2668 225.795C78.2179 225.779 78.2016 225.73 78.2179 225.681C78.2342 225.632 78.2831 225.616 78.332 225.632C79.0002 225.909 79.6195 226.3 80.1899 226.757C80.5811 227.082 80.9396 227.441 81.2656 227.848C81.2982 227.881 81.2819 227.93 81.2493 227.963C81.233 228.011 81.2167 228.011 81.2004 228.011Z" fill="white"/>
<path fill-rule="evenodd" clip-rule="evenodd" d="M82.7977 224.719C82.7651 224.719 82.7488 224.703 82.7325 224.687C82.4554 224.263 82.1458 223.872 81.8035 223.497C81.1842 222.829 80.4671 222.258 79.6848 221.818C79.6522 221.802 79.6359 221.753 79.6522 221.704C79.6685 221.672 79.7174 221.655 79.7663 221.672C80.5649 222.128 81.2983 222.715 81.9176 223.383C82.2598 223.758 82.5858 224.165 82.8629 224.589C82.8955 224.621 82.8792 224.67 82.8466 224.703C82.8303 224.719 82.814 224.719 82.7977 224.719Z" fill="white"/>
<path fill-rule="evenodd" clip-rule="evenodd" d="M84.8185 221.672C84.7859 221.672 84.7696 221.655 84.7533 221.639C84.4437 221.183 84.0851 220.743 83.7265 220.335C83.042 219.569 82.2597 218.885 81.4122 218.298C81.3796 218.265 81.3633 218.217 81.3959 218.184C81.4285 218.151 81.4774 218.135 81.51 218.168C82.3738 218.754 83.1561 219.455 83.8569 220.237C84.2318 220.645 84.574 221.101 84.9 221.558C84.9326 221.59 84.9163 221.639 84.8837 221.672C84.8511 221.672 84.8348 221.672 84.8185 221.672Z" fill="white"/>
<path fill-rule="evenodd" clip-rule="evenodd" d="M87.3934 218.787C87.3608 218.787 87.3445 218.771 87.3282 218.754C86.9207 218.07 86.4481 217.418 85.9266 216.799C85.2909 216.049 84.5901 215.348 83.8404 214.745C83.8078 214.712 83.8078 214.664 83.8241 214.631C83.8567 214.598 83.9056 214.598 83.9382 214.615C84.7042 215.234 85.4213 215.935 86.0569 216.701C86.5785 217.32 87.0511 217.988 87.4749 218.673C87.4912 218.705 87.4912 218.754 87.4423 218.787C87.426 218.787 87.4097 218.787 87.3934 218.787Z" fill="white"/>
<path fill-rule="evenodd" clip-rule="evenodd" d="M87.1817 215.968C86.4483 215.968 85.7149 215.853 84.9978 215.625C84.9652 215.609 84.9489 215.593 84.9489 215.544C84.9489 215.511 84.9652 215.479 84.9978 215.462C85.5356 215.218 86.5298 214.647 87.1328 213.49C87.3609 213.05 87.5239 212.561 87.5891 212.056C87.5891 210.606 88.4203 209.334 89.6101 208.976C89.659 208.959 90.9628 208.585 91.9896 209.497C92.4133 209.888 92.9022 210.606 92.8044 211.909C92.7067 213.278 91.7777 214.159 91.3865 214.517C89.9197 215.902 88.0455 215.935 87.3447 215.951C87.2632 215.968 87.2143 215.968 87.1817 215.968ZM85.2422 215.528C85.9267 215.723 86.6275 215.821 87.3121 215.805C87.9966 215.788 89.8219 215.756 91.2561 214.419C91.6473 214.061 92.5437 213.213 92.6252 211.909C92.7067 210.687 92.2503 210.003 91.8592 209.644C90.9139 208.796 89.659 209.155 89.6427 209.155C88.5181 209.481 87.7358 210.687 87.7358 212.089C87.6543 212.626 87.5076 213.132 87.2632 213.588C86.6927 214.647 85.8126 215.234 85.2422 215.528Z" fill="white"/>
<path fill-rule="evenodd" clip-rule="evenodd" d="M85.0467 215.69C85.0141 215.69 84.9978 215.674 84.9815 215.658C84.9652 215.625 84.9652 215.593 84.9815 215.576C85.6172 214.533 85.9105 213.523 85.8453 212.561C85.829 212.154 85.7475 211.828 85.666 211.518C85.552 211.045 85.4379 210.605 85.5846 209.954C85.7801 209.09 86.1876 208.503 86.7906 208.21C87.6381 207.802 88.5019 208.193 88.6649 208.275C89.5287 208.715 89.8057 209.595 89.9035 209.921C90.1969 210.817 90.0828 211.795 89.6101 212.838C88.453 215.283 85.389 215.658 85.0467 215.69ZM87.6055 208.193C87.3773 208.193 87.1166 208.242 86.8558 208.356C86.3017 208.617 85.9268 209.171 85.7312 209.986C85.5846 210.589 85.6986 210.997 85.8127 211.469C85.8942 211.763 85.9757 212.105 85.992 212.529C86.0409 213.474 85.7801 214.484 85.1934 215.495C85.9105 215.397 88.453 214.892 89.4472 212.757C89.9198 211.763 90.0176 210.817 89.7405 209.97C89.6427 209.66 89.382 208.845 88.5834 208.422C88.4856 208.373 88.0944 208.193 87.6055 208.193Z" fill="white"/>
<path fill-rule="evenodd" clip-rule="evenodd" d="M88.0127 227.995C87.9964 227.995 87.9638 227.979 87.9475 227.963C87.9149 227.93 87.9149 227.881 87.9638 227.848C88.6483 227.245 89.5773 226.235 90.0825 224.719C90.8974 222.242 90.2781 219.357 88.5179 217.548C87.377 216.375 86.0243 215.902 85.079 215.707C85.0301 215.69 85.0138 215.658 85.0138 215.609C85.0301 215.56 85.0627 215.544 85.1116 215.544C86.0732 215.739 87.4585 216.228 88.632 217.434C90.4248 219.276 91.0604 222.226 90.2292 224.768C89.724 226.316 88.7787 227.36 88.0779 227.979C88.0453 227.979 88.029 227.995 88.0127 227.995Z" fill="white"/>
<path fill-rule="evenodd" clip-rule="evenodd" d="M95.2001 221.118C95.1675 221.118 95.1349 221.101 95.1186 221.069C95.0371 220.857 93.114 215.886 88.6646 215.169C87.1326 214.924 85.9918 215.299 85.0302 215.674C84.9813 215.69 84.9487 215.674 84.9324 215.625C84.9161 215.576 84.9324 215.544 84.9813 215.527C85.9592 215.136 87.1326 214.761 88.6972 215.006C93.2443 215.739 95.2001 220.792 95.2816 221.003C95.2979 221.052 95.2816 221.085 95.2327 221.101C95.2164 221.118 95.2164 221.118 95.2001 221.118Z" fill="white"/>
<path fill-rule="evenodd" clip-rule="evenodd" d="M101.556 195.872C99.9754 196.85 98.6064 197.257 97.6611 197.469C95.9498 197.828 94.7601 197.665 93.8963 198.561C93.277 199.197 93.1303 200.061 93.0977 200.664C92.8043 200.566 92.1524 200.403 91.4353 200.664C90.4411 201.006 89.7403 202 89.6262 203.19C90.9301 203.043 92.5925 202.685 94.4015 201.886C98.2967 200.158 100.546 197.355 101.556 195.872Z" fill="#0A9CE5"/>
<path fill-rule="evenodd" clip-rule="evenodd" d="M95.2816 128.985C95.2816 128.985 93.6518 132.098 93.5703 135.765C93.4399 137.493 93.4888 141.812 95.6728 146.359C97.0581 149.26 98.9323 151.265 100.383 152.536C105.256 157.458 110.406 163.227 115.507 169.926C118.751 174.18 121.603 178.319 124.129 182.28C125.286 183.681 127.03 185.344 129.491 186.501C131.333 187.365 134.397 188.831 137.624 187.642C138.064 187.479 141.568 186.224 142.578 183.551C143.882 177.162 129.735 148.152 123.151 139.025C120.413 135.228 117.952 132.278 116.322 130.403C116.094 130.094 115.931 129.931 115.589 129.572C102.502 128.334 95.9172 128.855 95.2816 128.985Z" fill="#0A9CE5"/>
<path fill-rule="evenodd" clip-rule="evenodd" d="M123.966 181.954C123.64 182.019 123.119 182.133 122.499 182.279C120.169 182.85 115.051 184.382 108.842 189.271C105.941 191.553 105.908 192.075 103.154 194.47C100.285 196.948 95.9337 200.191 89.659 203.092C89.4471 203.89 88.8278 206.775 90.3109 209.921C91.6962 212.887 94.092 214.24 94.858 214.631C96.1618 213.897 98.1502 212.757 100.546 211.371C111.547 205.048 114.122 203.336 118.588 200.973C121.961 199.18 126.9 196.752 133.223 194.307C134.283 194.03 135.815 193.525 137.444 192.515C138.422 191.912 139.905 190.999 141.014 189.418C142.741 186.973 143.295 183.257 142.155 181.285C140.313 178.091 132.653 177.374 123.966 181.954Z" fill="#0A9CE5"/>
<g style="mix-blend-mode:lighten">
<path d="M95.3796 145.756C95.7545 146.701 96.6672 148.38 97.808 149.847C98.6718 150.955 99.34 151.493 100.839 152.992C101.508 153.66 102.404 154.622 104.197 156.561C105.468 157.931 108.874 161.614 112.215 165.672C114.742 168.736 118.066 173.169 121.684 178.564C120.544 175.255 118.914 171.344 116.665 167.514C110.146 156.382 101.165 149.407 95.3796 145.756Z" fill="white" fill-opacity="0.3"/>
</g>
<g style="mix-blend-mode:lighten">
<path d="M119.875 183.013C117.431 183.893 115.459 184.887 113.992 185.718C112.672 186.468 109.282 188.391 106.511 191.243C106.511 191.243 105.566 192.221 104.229 193.476C102.942 194.699 102.29 195.253 101.491 195.79C100.742 196.279 100.09 196.622 99.6496 196.834C100.22 196.671 101.1 196.394 102.143 195.97C106.381 194.21 108.744 191.667 111.172 189.467C113.046 187.788 115.899 185.458 119.875 183.013Z" fill="white" fill-opacity="0.3"/>
</g>
<path d="M91.6311 206.775C91.5985 206.775 91.5659 206.759 91.5496 206.727C91.5333 206.694 91.5496 206.645 91.5822 206.612C94.0432 205.423 96.439 204.07 98.7207 202.554C100.921 201.104 102.176 200.061 103.626 198.855C104.311 198.301 105.012 197.714 105.875 197.029C109.95 193.819 115.002 189.826 121.831 187.43C124.634 186.452 127.584 185.784 130.632 185.474C130.681 185.474 130.713 185.507 130.713 185.539C130.713 185.588 130.681 185.621 130.648 185.621C127.617 185.93 124.667 186.582 121.88 187.56C115.084 189.94 110.031 193.933 105.973 197.143C105.109 197.828 104.409 198.415 103.724 198.969C102.274 200.175 101.019 201.218 98.8185 202.668C96.5205 204.184 94.1247 205.553 91.6474 206.743C91.6474 206.775 91.6311 206.775 91.6311 206.775Z" fill="#828282" fill-opacity="0.3"/>
<path d="M132.702 181.579C132.669 181.579 132.636 181.562 132.62 181.513C131.854 178.808 130.909 176.103 129.801 173.495C128.008 169.274 125.954 165.802 117.349 153.563C116.42 152.242 115.573 151.053 114.79 149.944C110.781 144.289 108.581 141.176 105.517 135.879C104.539 134.201 103.594 132.489 102.697 130.778C102.681 130.745 102.697 130.697 102.73 130.664C102.762 130.648 102.811 130.664 102.844 130.697C103.74 132.392 104.686 134.103 105.663 135.782C108.711 141.062 110.928 144.175 114.921 149.83C115.703 150.922 116.55 152.128 117.479 153.448C126.101 165.704 128.154 169.176 129.947 173.413C131.056 176.021 132.001 178.726 132.767 181.448C132.783 181.497 132.75 181.53 132.718 181.546C132.718 181.579 132.718 181.579 132.702 181.579Z" fill="#828282" fill-opacity="0.3"/>
<path fill-rule="evenodd" clip-rule="evenodd" d="M142.578 183.551C143.882 177.162 129.735 148.152 123.151 139.025C120.413 135.228 117.952 132.278 116.322 130.403C116.094 130.094 115.931 129.931 115.589 129.572C111.205 129.149 107.407 128.953 104.327 128.871C114.057 135.325 132.93 152.878 142.578 183.551Z" fill="#027BC6"/>
<path d="M107.016 138.226C106.983 138.226 106.951 138.21 106.951 138.177C106.935 138.145 106.951 138.096 106.983 138.063C108.434 137.346 110.488 135.977 111.987 133.484C112.655 132.375 113.144 131.169 113.437 129.882C113.454 129.833 113.486 129.817 113.535 129.817C113.584 129.833 113.6 129.866 113.6 129.914C113.307 131.218 112.802 132.441 112.134 133.565C110.618 136.091 108.532 137.477 107.065 138.21C107.049 138.21 107.032 138.226 107.016 138.226Z" fill="#828282" fill-opacity="0.3"/>
</svg>
